// EVENT 4045
Name "Promestein 5"

If(0,25,1)
 221()
 PictureClear(5)
 PictureClear(6)
 ShowMessageFace("",0,0,2,0)
 ShowMessage("......")
 242(2)
 Wait(120)
 241(bytes(0x04,0x08,0x6f,0x3a,0x0d,0x52,0x50,0x47,0x3a,0x3a,0x42,0x47,0x4d,0x08,0x3a,0x0a,0x40,0x6e,0x61,0x6d,0x65,0x49,0x22,0x0c,0x63,0x61,0x73,0x74,0x6c,0x65,0x36,0x06,0x3a,0x06,0x45,0x54,0x3a,0x0c,0x40,0x76,0x6f,0x6c,0x75,0x6d,0x65,0x69,0x69,0x3a,0x0b,0x40,0x70,0x69,0x74,0x63,0x68,0x69,0x69))
 EndEventProcessing()
 0()
EndIf()
PictureDisplay(5,"80_stein_st31",0,0,0,0,100,100,255,0)
ShowMessageFace("stein_fc2",0,0,2,1)
ShowMessage("\\n<Promestein>Excuse me, would you help me collect semen?\nI only need a little...")
ShowMessageFace("",0,0,2,2)
ShowMessage("\\n<Luka>U-Uh... Okay...")
ShowMessageFace("stein_fc2",0,0,2,3)
ShowMessage("\\n<Promestein>Then, please follow me...")
ShowMessageFace("",0,0,2,4)
ShowMessage("I follow her to a private room...")
221()
PictureDisplay(1,"bg195",0,0,0,0,100,100,255,0)
PictureDisplay(5,"ev_stein_hsa1",0,0,0,0,100,100,255,0)
222()
241(bytes(0x04,0x08,0x6f,0x3a,0x0d,0x52,0x50,0x47,0x3a,0x3a,0x42,0x47,0x4d,0x08,0x3a,0x0a,0x40,0x6e,0x61,0x6d,0x65,0x49,0x22,0x09,0x65,0x72,0x6f,0x31,0x06,0x3a,0x06,0x45,0x54,0x3a,0x0c,0x40,0x76,0x6f,0x6c,0x75,0x6d,0x65,0x69,0x69,0x3a,0x0b,0x40,0x70,0x69,0x74,0x63,0x68,0x69,0x69))
ShowMessageFace("stein_fc2",1,0,2,5)
ShowMessage("\\n<Promestein>Well then, I shall collect your semen.\nI'll use my hand to make it feel good, so come a lot...")
ShowMessageFace("",0,0,2,6)
ShowMessage("As soon as I enter the room, she removes my pants and underwear.")
ShowMessage("She quickly grabs hold of my exposed penis with her hand.")
245(bytes(0x04,0x08,0x6f,0x3a,0x0d,0x52,0x50,0x47,0x3a,0x3a,0x42,0x47,0x53,0x08,0x3a,0x0a,0x40,0x6e,0x61,0x6d,0x65,0x49,0x22,0x17,0x6d,0x6f,0x6e,0x5f,0x68,0x73,0x65,0x61,0x6e,0x31,0x37,0x5f,0x73,0x69,0x67,0x6f,0x6b,0x69,0x06,0x3a,0x06,0x45,0x54,0x3a,0x0c,0x40,0x76,0x6f,0x6c,0x75,0x6d,0x65,0x69,0x55,0x3a,0x0b,0x40,0x70,0x69,0x74,0x63,0x68,0x69,0x69))
ShowMessageFace("",0,0,2,7)
ShowMessage("Like that, she slowly starts to stroke me.")
ShowMessage("It's almost like she's playing with a small animal...")
ShowMessageFace("",0,0,2,8)
ShowMessage("\\n<Luka>Unnngh...That feels good...")
ShowMessageFace("stein_fc2",1,0,2,9)
ShowMessage("\\n<Promestein>Fufu, your penis is all hard.\nI'll make you spit it all out now...")
ShowMessageFace("",0,0,2,10)
ShowMessage("Promestein gently strokes my penis.")
ShowMessage("Sometimes she uses her fingers to rub and press against my glans.")
ShowMessageFace("stein_fc2",1,0,2,11)
ShowMessage("\\n<Promestein>If you can't endure it, ejaculate right away.\nUntil then, I'll give you plenty of pleasure...")
ShowMessageFace("",0,0,2,12)
ShowMessage("Promestein smiles as she looks up at me.")
ShowMessage("Full of affection, her touch sends sweet pleasure into me.")
ShowMessageFace("",0,0,2,13)
ShowMessage("Her palm rubs against my shaft.")
ShowMessage("At the same time, she squeezes my glans.")
ShowMessageFace("",0,0,2,14)
ShowMessage("Both of her thumbs press against me, gently squeezing me.")
ShowMessage("Her skilled fingers only increased the amazing sensation of her handjob.")
ShowMessageFace("",0,0,2,15)
ShowMessage("\\n<Luka>Ah, aaah...That feels good...")
ShowMessageFace("stein_fc2",1,0,2,16)
ShowMessage("\\n<Promestein>Fufu, are you going to come soon?\nHere, this feels good, doesn't it?")
ShowMessageFace("",0,0,2,17)
ShowMessage("Rubbing her hands up and down, Promestein uses her fingers to rub around the neck of my penis.")
ShowMessage("Moving much faster than before, I unconsciously thrust my hips up.")
ShowMessageFace("",0,0,2,18)
ShowMessage("\\n<Luka>Ah... Hnnngh...!")
ShowMessageFace("stein_fc2",1,0,2,19)
ShowMessage("\\n<Promestein>You'll ejaculate with this, won't you?\nNow, come a lot...")
ShowMessageFace("",0,0,2,20)
ShowMessage("While sweetly whispering, Promestein's sweet hands stroke me.")
ShowMessage("The stimulus is quickly driving me over...")
ShowMessageFace("",0,0,2,21)
ShowMessage("\\n<Luka>Ah... I'm coming...!")
ShowMessageFace("stein_fc2",1,0,2,22)
ShowMessage("\\n<Promestein>Fufu, it's twitching...")
RunCommonEvent(104)
PictureDisplay(5,"ev_stein_hsa2",0,0,0,0,100,100,255,0)
RunCommonEvent(105)
ShowMessageFace("",0,0,2,23)
ShowMessage("Too quickly, I come into Promestein's hands.")
ShowMessage("She laughs as she watches me come.")
ShowMessageFace("",0,0,2,24)
ShowMessage("\\n<Luka>......")
ShowMessageFace("stein_fc2",1,0,2,25)
ShowMessage("\\n<Promestein>Fufu, you came so much.\nBut we'll need more...")
ShowMessageFace("",0,0,2,26)
ShowMessage("Promestein squeezes harder with her hand.")
ShowMessage("My hips shake in reaction to her touch.")
ShowMessageFace("stein_fc2",1,0,2,27)
ShowMessage("\\n<Promestein>I'll have you come multiple times.\nI'll make you feel good over and over...")
ShowMessageFace("",0,0,2,28)
ShowMessage("\\n<Luka>N...no way...\nAaah...")
ShowMessageFace("",0,0,2,29)
ShowMessage("Her hand holds me tightly, right after my orgasm.")
ShowMessage("Squeezing and rubbing, even her thumb is pressing against me.")
ShowMessageFace("",0,0,2,30)
ShowMessage("\\n<Luka>D-don't... Aaah...")
ShowMessageFace("",0,0,2,31)
ShowMessage("With affectionate stroking, her handjob continues.")
ShowMessage("The sweet pleasure of her touch is too much to take.")
ShowMessageFace("",0,0,2,32)
ShowMessage("In response to that, my penis is twitching in pleasure.")
ShowMessage("Promestein's hands leave me cornered in no time at all.")
ShowMessageFace("",0,0,2,33)
ShowMessage("\\n<Luka>Ah... I'm coming again...!")
ShowMessageFace("stein_fc2",1,0,2,34)
ShowMessage("\\n<Promestein>Fufu, coming again?\nLet it all loose in my hand...")
ShowMessageFace("",0,0,2,35)
ShowMessage("\\n<Luka>Ah, aaaah...!")
RunCommonEvent(104)
PictureDisplay(5,"ev_stein_hsa3",0,0,0,0,100,100,255,0)
RunCommonEvent(105)
ShowMessageFace("",0,0,2,36)
ShowMessage("I'm led to a second ejaculation in her hand.")
ShowMessage("My semen covers her hand, dirtying it.")
ShowMessageFace("stein_fc2",1,0,2,37)
ShowMessage("\\n<Promestein>Are you satisfied?\nWell then, once more...")
ShowMessageFace("",0,0,2,38)
ShowMessage("\\n<Luka>Th...that... Impossible...\nAaaah...!")
ShowMessageFace("stein_fc2",1,0,2,39)
ShowMessage("\\n<Promestein>Fufu, but your penis is still so big.\nI'll squeeze it until it gets smaller...")
ShowMessageFace("",0,0,2,40)
ShowMessage("With a smile, her handjob continues.")
ShowMessage("Pampered so quickly after my second orgasm, it's too sensitive.")
ShowMessageFace("",0,0,2,41)
ShowMessage("\\n<Luka>I can't come anymore... I can't come, so...")
ShowMessageFace("stein_fc2",1,0,2,42)
ShowMessage("\\n<Promestein>Fufu, yes you can.")
ShowMessageFace("",0,0,2,43)
ShowMessage("She smiles at me as I beg her to stop.")
ShowMessage("As she gently rubs my penis...")
ShowMessageFace("",0,0,2,44)
ShowMessage("\\n<Luka>N-noooo... Aaah...")
246(1)
RunCommonEvent(104)
PictureDisplay(5,"ev_stein_hsa4",0,0,0,0,100,100,255,0)
RunCommonEvent(105)
ShowMessageFace("",0,0,2,45)
ShowMessage("I'm led to a powerful third climax.")
ShowMessage("Swinging my hips, my semen shoots out into her hand.")
ShowMessageFace("",0,0,2,46)
ShowMessage("\\n<Luka>Ah...ah...")
PictureDisplay(5,"ev_stein_hsa5",0,0,0,0,100,100,255,0)
ShowMessageFace("stein_fc2",0,0,2,47)
ShowMessage("\\n<Promestein>...It took three times to get the necessary amount.\nShall we stop here for today?")
ShowMessageFace("stein_fc2",0,0,2,48)
ShowMessage("\\n<Promestein>With that, we're done here.\nThanks for your hard work.")
ShowMessageFace("",0,0,2,49)
ShowMessage("\\n<Luka>Eh...?")
ShowMessageFace("",0,0,2,50)
ShowMessage("Her behavior suddenly changes.")
ShowMessage("After her normal unfriendly face, I'm shocked.")
ShowMessageFace("",0,0,2,51)
ShowMessage("\\n<Luka>You almost seemed friendly before...")
ShowMessageFace("stein_fc2",0,0,2,52)
ShowMessage("\\n<Promestein>If you ejaculate under the care of warm words and a warm face...\nWill there be a difference in the amount of semen collected? I wanted to test that out.")
ShowMessageFace("stein_fc2",0,0,2,53)
ShowMessage("\\n<Promestein>I'll call you if I need to collect more semen from now on.\nPlease come back again.")
ShowMessageFace("",0,0,2,54)
ShowMessage("\\n<Luka>......")
ShowMessageFace("",0,0,2,55)
ShowMessage("Was it all an act?")
ShowMessage("Weak on my legs, I stumble out of the room...")
221()
PictureClear(5)
PictureClear(6)
246(2)
ShowMessageFace("",0,0,2,56)
ShowMessage("......")
242(2)
Wait(120)
241(bytes(0x04,0x08,0x6f,0x3a,0x0d,0x52,0x50,0x47,0x3a,0x3a,0x42,0x47,0x4d,0x08,0x3a,0x0a,0x40,0x6e,0x61,0x6d,0x65,0x49,0x22,0x0c,0x63,0x61,0x73,0x74,0x6c,0x65,0x36,0x06,0x3a,0x06,0x45,0x54,0x3a,0x0c,0x40,0x76,0x6f,0x6c,0x75,0x6d,0x65,0x69,0x69,0x3a,0x0b,0x40,0x70,0x69,0x74,0x63,0x68,0x69,0x69))
0()
