﻿// EVENT 2175
Name "Seduction: Dullahan"

355("$game_troop.lose_event_id = 3175")
ChangeVariable(26,26,0,3,3,1,4)
ChangeVariable(26,26,4,0,10)
ShowMessageFace("durahan_fc1",0,0,2,1)
ShowMessage("\\n<Dullahan>You're quite skilled.\nIn that case, how about this?!")
ShowMessageFace("",0,0,2,2)
ShowMessage("The Dullahan leans on top of Luka and straddles him!")
ShowMessageFace("durahan_fc1",1,0,2,3)
ShowMessage("\\n<Dullahan>Just be quiet...\nThen you can taste my vagina as much as you like.")
ChangeSwitch(98,98,0)
ChangeSwitch(96,96,0)
ShowChoices(strings("Ignore her","Give in to temptation"),1)
IfPlayerPicksChoice(0,"Ignore her")
 ShowMessageFace("",0,0,2,4)
 ShowMessage("Luka resists her temptation!")
 RunCommonEvent(1999)
 EndEventProcessing()
 0()
IfPlayerPicksChoice(1,"Give in to temptation")
 0()
404()
ShowMessageFace("durahan_fc1",1,0,2,5)
ShowMessage("\\n<Dullahan>You've resigned?\nThen let's get on with the public rape...!")
ChangeVariable(26,26,3,0,6)
250(bytes(0x04,0x08,0x6f,0x3a,0x0c,0x52,0x50,0x47,0x3a,0x3a,0x53,0x45,0x08,0x3a,0x0a,0x40,0x6e,0x61,0x6d,0x65,0x49,0x22,0x11,0x6d,0x6f,0x6e,0x5f,0x65,0x72,0x6f,0x5f,0x70,0x79,0x75,0x32,0x06,0x3a,0x06,0x45,0x54,0x3a,0x0b,0x40,0x70,0x69,0x74,0x63,0x68,0x69,0x69,0x3a,0x0c,0x40,0x76,0x6f,0x6c,0x75,0x6d,0x65,0x69,0x69))
311(0,1,1,1,26,true)
ShowMessageFace("",0,0,2,6)
ShowMessage("The Dullahan drops her waist, forcing Luka inside her!\nHis penis sinks deep inside her hot vagina!\\D")
ShowMessage("Luka takes \\V[26] damage!")
ChangeVariable(27,27,0,3,3,1,2)
250(bytes(0x04,0x08,0x6f,0x3a,0x0c,0x52,0x50,0x47,0x3a,0x3a,0x53,0x45,0x08,0x3a,0x0a,0x40,0x6e,0x61,0x6d,0x65,0x49,0x22,0x13,0x6d,0x6f,0x6e,0x5f,0x65,0x72,0x6f,0x5f,0x63,0x68,0x75,0x70,0x61,0x32,0x06,0x3a,0x06,0x45,0x54,0x3a,0x0b,0x40,0x70,0x69,0x74,0x63,0x68,0x69,0x69,0x3a,0x0c,0x40,0x76,0x6f,0x6c,0x75,0x6d,0x65,0x69,0x69))
311(0,1,1,1,26,true)
ShowMessageFace("",0,0,2,7)
ShowMessage("The Dullahan's vagina contracts and tightens around Luka's penis! Her devilish pussy greedily indulges on his thing, leading him to an immediate ejaculation!\\D")
ShowMessage("Luka takes \\V[26] damage!")
ChangeVariable(27,27,0,3,3,1,2)
If(1,27,0,0,0)
 JumpToLabel("射精1")
 0()
EndIf()
DefineLabel("射精1")
ShowMessageFace("",0,0,2,8)
ShowMessage("\\n<Luka>No, I'm coming... Aaaah...")
RunCommonEvent(104)
RunCommonEvent(105)
ShowMessageFace("",0,0,2,9)
ShowMessage("The moment I was raped by the Dullahan, I miserably release my semen into her vagina. I couldn't even endure ten seconds of her melting sensation.")
ShowMessageFace("durahan_fc1",1,0,2,10)
ShowMessage("\\n<Dullahan>What, you've already come...?\nHow pitiful being instantly defeated by my vagina.")
RunCommonEvent(2000)
EndEventProcessing()
0()
