// EVENT 5396
Name "Queen Elf"

PictureDisplay(5,"80_queenelf_st02",0,0,0,0,100,100,0,0)
PictureMove(5,null,0,0,0,0,100,100,255,0,30,true)
ShowMessageFace("queenelf_fc1",0,0,2,1)
ShowMessage("\\n<Freya>")
ShowMessage("What a despicable desire for pleasure...")
ShowMessageFace("",0,0,2,2)
ShowMessage("\\n<Luka>")
ShowMessage("Y-Yes please...")
ShowMessageFace("queenelf_fc1",1,0,2,3)
ShowMessage("\\n<Freya>")
ShowMessage("...Now then,  I'll rape you.")
ShowMessage("First I'll make you come in five seconds after insertion to humiliate you.")
ShowMessageFace("queenelf_fc1",1,0,2,4)
ShowMessage("\\n<Freya>")
ShowMessage("I'll need to show you how worthless of a man you are.")
ShowMessageFace("",0,0,2,5)
ShowMessage("\\n<Luka>")
ShowMessage("N...no...")
ShowMessageFace("",0,0,2,6)
ShowMessage("Freya stands over me with a cold smile on her face.")
ShowMessage("Lifting up her skirt, she starts to sit down on me.")
ShowMessageFace("queenelf_fc1",1,0,2,7)
ShowMessage("\\n<Freya>")
ShowMessage("Now, to rape you...")
ShowMessage("See how powerless you are when faced with a Queen's pussy.")
ShowMessageFace("",0,0,2,8)
ShowMessage("\\n<Luka>")
ShowMessage("S...Stop... Ahh!")
241(bytes(0x04,0x08,0x6f,0x3a,0x0d,0x52,0x50,0x47,0x3a,0x3a,0x42,0x47,0x4d,0x08,0x3a,0x0a,0x40,0x6e,0x61,0x6d,0x65,0x49,0x22,0x09,0x65,0x72,0x6f,0x31,0x06,0x3a,0x06,0x45,0x54,0x3a,0x0c,0x40,0x76,0x6f,0x6c,0x75,0x6d,0x65,0x69,0x69,0x3a,0x0b,0x40,0x70,0x69,0x74,0x63,0x68,0x69,0x69))
245(bytes(0x04,0x08,0x6f,0x3a,0x0d,0x52,0x50,0x47,0x3a,0x3a,0x42,0x47,0x53,0x08,0x3a,0x0a,0x40,0x6e,0x61,0x6d,0x65,0x49,0x22,0x1e,0x6d,0x6f,0x6e,0x5f,0x68,0x73,0x65,0x61,0x6e,0x30,0x31,0x5f,0x69,0x6e,0x6e,0x65,0x72,0x77,0x6f,0x72,0x6b,0x73,0x5f,0x61,0x31,0x06,0x3a,0x06,0x45,0x54,0x3a,0x0c,0x40,0x76,0x6f,0x6c,0x75,0x6d,0x65,0x69,0x55,0x3a,0x0b,0x40,0x70,0x69,0x74,0x63,0x68,0x69,0x69))
PictureDisplay(6,"ev_queenelf_ct01",0,0,0,0,100,100,255,0)
ShowMessageFace("",0,0,2,9)
ShowMessage("Ignoring my pleas, the Queen Elf just forces me inside her.")
ShowMessageFace("",0,0,2,10)
ShowMessage("\\n<Luka>")
ShowMessage("Ahh...")
ShowMessageFace("",0,0,2,11)
ShowMessage("I thought she was just teasing me about the five seconds...")
ShowMessage("But as her soft flesh squeezes my penis, I feel myself about to orgasm just from insertion.")
ShowMessageFace("",0,0,2,12)
ShowMessage("Her small folds rub against my tip as my penis pushes into her, making my head go white in ecstasy.")
ShowMessage("By the time I'm all the way inside her, it feels like I'm already in a trance.")
ShowMessageFace("",0,0,2,13)
ShowMessage("As the tip of my penis pushes against her innermost spot, I feel my waist ache as a powerful orgasm is about to flow over me.")
ShowMessageFace("",0,0,2,14)
ShowMessage("\\n<Luka>")
ShowMessage("Th...This is too much... Ahh...")
ShowMessageFace("",0,0,2,15)
ShowMessage("My body shakes as I explode inside of her, pouring my semen into her warm vagina.")
RunCommonEvent(104)
PictureDisplay(6,"ev_queenelf_ct02",0,0,0,0,100,100,255,0)
RunCommonEvent(105)
246(2)
ShowMessageFace("",0,0,2,16)
ShowMessage("Forced to an orgasm only moments after insertion...")
ShowMessageFace("",0,0,2,17)
ShowMessage("Just as she said, I couldn't even last five seconds inside her.")
ShowMessageFace("",0,0,2,18)
ShowMessage("I start to tremble in helplessness underneath her.")
ShowMessageFace("queenelf_fc1",1,0,2,19)
ShowMessage("\\n<Freya>")
ShowMessage("Ufufu... Isn't that just pitiful...?")
ShowMessage("But at least it felt good, didn't it?")
ShowMessageFace("",0,0,2,20)
ShowMessage("Freya smiles at me, softly...")
ShowMessage("She looks down at me with a mocking glance.")
ShowMessageFace("",0,0,2,21)
ShowMessage("It was the glance of a ruler filled with scorn at a man who came in seconds inside her...")
221()
PictureClear(5)
PictureClear(6)
ShowMessageFace("",0,0,2,22)
ShowMessage("......")
RunCommonEvent(3998)
0()
