﻿// EVENT 0635
Name "Event: High Slug"

ChangeSwitch(73,73,0)
If(1,129,0,0,0)
 ShowMessageFace("highslag_fc1",0,0,2,1)
 ShowMessage("\\n<High Slug>I am a noble, so I will teach you a rapier skill.\nIt will be meaningless however, if you cannot use [Rapier] skills...")
 ShowChoices(strings("Receive lesson","No thanks"),0)
 IfPlayerPicksChoice(0,"伝授してもらう")
  ShowMessageFace("",0,0,2,2)
  ShowMessage("Who will learn the Rapier skills?")
  DefineLabel("選択")
  355("names = party_members.collect{|m|m.name}")
  655("unlimited_choices(11, names)")
  655("actor = party_members[$game_variables[11]]")
  655("$game_variables[10] = actor ? actor.id : 0")
  If(1,10,0,0,0)
   ChangeSwitch(73,73,1)
   EndEventProcessing()
   0()
  EndIf()
  ShowMessageFace("",0,0,2,3)
  ShowMessage("Which Rapier skill will you learn?")
  ShowChoices(strings("Forti Tria","Pagos Tria","Kerav Tria"),0)
  IfPlayerPicksChoice(0,"フォティトゥリア")
   If(12,"actor_skill_have?(v(10),991)")
    ShowMessageFace("",0,0,2,4)
    ShowMessage("That character already knows Forti Tria...")
    JumpToLabel("選択")
    0()
   EndIf()
   ChangeVariable(129,129,0,0,1)
   318(1,10,0,991)
   250(bytes(0x04,0x08,0x6f,0x3a,0x0c,0x52,0x50,0x47,0x3a,0x3a,0x53,0x45,0x08,0x3a,0x0a,0x40,0x6e,0x61,0x6d,0x65,0x49,0x22,0x0a,0x49,0x74,0x65,0x6d,0x31,0x06,0x3a,0x06,0x45,0x54,0x3a,0x0b,0x40,0x70,0x69,0x74,0x63,0x68,0x69,0x69,0x3a,0x0c,0x40,0x76,0x6f,0x6c,0x75,0x6d,0x65,0x69,0x55))
   ShowMessageFace("",0,0,2,5)
   ShowMessage("You learned \\I[697]\\C[1]Forti Tria\\C[0]!")
   ChangeSwitch(73,73,1)
   EndEventProcessing()
   0()
  IfPlayerPicksChoice(1,"パゴストゥリア")
   If(12,"actor_skill_have?(v(10),992)")
    ShowMessageFace("",0,0,2,6)
    ShowMessage("That character already knows Pagos Tria...")
    JumpToLabel("選択")
    0()
   EndIf()
   ChangeVariable(129,129,0,0,1)
   318(1,10,0,992)
   250(bytes(0x04,0x08,0x6f,0x3a,0x0c,0x52,0x50,0x47,0x3a,0x3a,0x53,0x45,0x08,0x3a,0x0a,0x40,0x6e,0x61,0x6d,0x65,0x49,0x22,0x0a,0x49,0x74,0x65,0x6d,0x31,0x06,0x3a,0x06,0x45,0x54,0x3a,0x0b,0x40,0x70,0x69,0x74,0x63,0x68,0x69,0x69,0x3a,0x0c,0x40,0x76,0x6f,0x6c,0x75,0x6d,0x65,0x69,0x55))
   ShowMessageFace("",0,0,2,7)
   ShowMessage("You learned \\I[697]\\C[1]Pagos Tria\\C[0]!")
   ChangeSwitch(73,73,1)
   EndEventProcessing()
   0()
  IfPlayerPicksChoice(2,"ケラヴトゥリア")
   If(12,"actor_skill_have?(v(10),993)")
    ShowMessageFace("",0,0,2,8)
    ShowMessage("That character already knows Kerav Tria...")
    JumpToLabel("選択")
    0()
   EndIf()
   ChangeVariable(129,129,0,0,1)
   318(1,10,0,993)
   250(bytes(0x04,0x08,0x6f,0x3a,0x0c,0x52,0x50,0x47,0x3a,0x3a,0x53,0x45,0x08,0x3a,0x0a,0x40,0x6e,0x61,0x6d,0x65,0x49,0x22,0x0a,0x49,0x74,0x65,0x6d,0x31,0x06,0x3a,0x06,0x45,0x54,0x3a,0x0b,0x40,0x70,0x69,0x74,0x63,0x68,0x69,0x69,0x3a,0x0c,0x40,0x76,0x6f,0x6c,0x75,0x6d,0x65,0x69,0x55))
   ShowMessageFace("",0,0,2,9)
   ShowMessage("You learned \\I[697]\\C[1]Kerav Tria\\C[0]!")
   ChangeSwitch(73,73,1)
   EndEventProcessing()
   0()
  404()
  0()
 IfPlayerPicksChoice(1,"必要ない")
  ChangeSwitch(73,73,1)
  EndEventProcessing()
  0()
 404()
 0()
EndIf()
If(1,129,0,1,0)
 ShowMessageFace("highslag_fc1",0,0,2,10)
 ShowMessage("\\n<High Slug>That is all for today...")
 ChangeSwitch(73,73,1)
 EndEventProcessing()
 0()
EndIf()
0()
