// EVENT 5666
Name "Titania 1"

PictureDisplay(5,"80_cirqueb_st11",0,0,0,0,100,100,255,0)
ShowMessageFace("cirqueb_fc2",0,0,2,1)
ShowMessage("\\n<Titania>")
ShowMessage("You want me to pull a prank on your penis...?")
ShowMessageFace("",0,0,2,2)
ShowMessage("\\n<Luka>Y-Yes... Please...")
ShowMessageFace("cirqueb_fc2",3,0,2,3)
ShowMessage("\\n<Titania>")
ShowMessage("Eww, no~♪ Eiyah!")
241(bytes(0x04,0x08,0x6f,0x3a,0x0d,0x52,0x50,0x47,0x3a,0x3a,0x42,0x47,0x4d,0x08,0x3a,0x0a,0x40,0x6e,0x61,0x6d,0x65,0x49,0x22,0x09,0x65,0x72,0x6f,0x31,0x06,0x3a,0x06,0x45,0x54,0x3a,0x0c,0x40,0x76,0x6f,0x6c,0x75,0x6d,0x65,0x69,0x69,0x3a,0x0b,0x40,0x70,0x69,0x74,0x63,0x68,0x69,0x69))
250(bytes(0x04,0x08,0x6f,0x3a,0x0c,0x52,0x50,0x47,0x3a,0x3a,0x53,0x45,0x08,0x3a,0x0a,0x40,0x6e,0x61,0x6d,0x65,0x49,0x22,0x0e,0x6d,0x6f,0x6e,0x5f,0x66,0x6c,0x61,0x73,0x68,0x06,0x3a,0x06,0x45,0x54,0x3a,0x0b,0x40,0x70,0x69,0x74,0x63,0x68,0x69,0x69,0x3a,0x0c,0x40,0x76,0x6f,0x6c,0x75,0x6d,0x65,0x69,0x55))
PictureDisplay(5,"ev_cirque_hb31",0,0,0,0,100,100,255,0)
ShowMessageFace("",0,0,2,4)
ShowMessage("Titania's eyes brightly shine!")
ShowMessageFace("",0,0,2,5)
ShowMessage("\\n<Luka>W-What is... Ahh!")
245(bytes(0x04,0x08,0x6f,0x3a,0x0d,0x52,0x50,0x47,0x3a,0x3a,0x42,0x47,0x53,0x08,0x3a,0x0a,0x40,0x6e,0x61,0x6d,0x65,0x49,0x22,0x17,0x6d,0x6f,0x6e,0x5f,0x68,0x73,0x65,0x61,0x6e,0x31,0x37,0x5f,0x73,0x69,0x67,0x6f,0x6b,0x69,0x06,0x3a,0x06,0x45,0x54,0x3a,0x0c,0x40,0x76,0x6f,0x6c,0x75,0x6d,0x65,0x69,0x55,0x3a,0x0b,0x40,0x70,0x69,0x74,0x63,0x68,0x69,0x69))
ShowMessageFace("",0,0,2,6)
ShowMessage("Titania's magic power fills me, seducing me instantly.")
ShowMessage("Desire runs through me, as sweet ecstasy floods my brain.")
ShowMessageFace("cirqueb_fc2",0,0,2,7)
ShowMessage("\\n<Titania>")
ShowMessage("If you want to orgasm, then do it yourself.")
ShowMessage("I'll watch though... Ok? ♪")
ShowMessageFace("",0,0,2,8)
ShowMessage("\\n<Luka>Hauu...")
ShowMessageFace("",0,0,2,9)
ShowMessage("Not knowing if it was my own will or not, I reach for my penis.")
ShowMessage("Grabbing myself, I start to stroke.")
ShowMessageFace("cirqueb_fc2",0,0,2,10)
ShowMessage("\\n<Titania>")
ShowMessage("You can look at my panties to help you masturbate.")
ShowMessage("Hora, make yourself come~♪")
ShowMessageFace("",0,0,2,11)
ShowMessage("\\n<Luka>T-This is... Ahhh...")
ShowMessageFace("",0,0,2,12)
ShowMessage("Despite the awful humiliaton, I can't stop masturbating.")
ShowMessage("I have no choice but to keep going until I come.")
ShowMessageFace("",0,0,2,13)
ShowMessage("\\n<Luka>Haa... Haaa... Please, touch it...")
ShowMessageFace("cirqueb_fc2",0,0,2,14)
ShowMessage("\\n<Titania>")
ShowMessage("No way~♪ Ahahaha♪")
ShowMessage("Instead, I'll give you a bit more service♪")
PictureDisplay(5,"ev_cirque_hb32",0,0,0,0,100,100,255,0)
ShowMessageFace("",0,0,2,15)
ShowMessage("Titania lowers her panties, showing off her vagina.")
ShowMessage("Her raw ass is exposed in front of me.")
ShowMessageFace("",0,0,2,16)
ShowMessage("\\n<Luka>Ah... Ahh...")
ShowMessageFace("cirqueb_fc2",0,0,2,17)
ShowMessage("\\n<Titania>")
ShowMessage("Aha, did that get you excited?")
ShowMessageFace("",0,0,2,18)
ShowMessage("Titania giggles as she watches me masturbate.")
ShowMessage("As she mocks me, I near my limit.")
ShowMessageFace("",0,0,2,19)
ShowMessage("\\n<Luka>Hauu... I'm going to come...")
ShowMessageFace("cirqueb_fc2",0,0,2,20)
ShowMessage("\\n<Titania>")
ShowMessage("Are you?")
ShowMessage("Do you think you can shoot it out far enough to reach my body?")
ShowMessageFace("",0,0,2,21)
ShowMessage("As my climax nears, my hand moves faster and faster.")
ShowMessage("Finally reaching it, I moan as I come.")
ShowMessageFace("",0,0,2,22)
ShowMessage("\\n<Luka>Ah...Ahhhh!!")
RunCommonEvent(104)
PictureDisplay(5,"ev_cirque_hb33",0,0,0,0,100,100,255,0)
RunCommonEvent(105)
246(2)
ShowMessageFace("",0,0,2,23)
ShowMessage("A huge amount of semen shoots out, landing on Titania.")
ShowMessage("Together with my orgasm, I break free of my trance.")
ShowMessageFace("cirqueb_fc2",0,0,2,24)
ShowMessage("\\n<Titania>")
ShowMessage("Ahaha, you came so much~♪")
ShowMessage("My body's all gooey and covered~♪")
ShowMessageFace("",0,0,2,25)
ShowMessage("Titania laughs, covered in semen.")
ShowMessage("As if showing off her soiled body, she shakes her ass in front of me.")
ShowMessageFace("",0,0,2,26)
ShowMessage("\\n<Luka>Hauu...")
ShowMessageFace("",0,0,2,27)
ShowMessage("I masturbated, and came all over Titania...")
ShowMessage("A sense of misery and failure mix with the ecstasy.")
221()
PictureClear(5)
PictureClear(6)
ShowMessageFace("",0,0,2,28)
ShowMessage("......")
RunCommonEvent(3998)
0()
