// EVENT 3363
Name "Cupid"

PictureDisplay(5,"80_cupid_st02",0,0,0,0,100,100,0,0)
PictureMove(5,null,0,0,0,0,100,100,255,0,30,true)
241(bytes(0x04,0x08,0x6f,0x3a,0x0d,0x52,0x50,0x47,0x3a,0x3a,0x42,0x47,0x4d,0x08,0x3a,0x0a,0x40,0x6e,0x61,0x6d,0x65,0x49,0x22,0x09,0x65,0x72,0x6f,0x31,0x06,0x3a,0x06,0x45,0x54,0x3a,0x0c,0x40,0x76,0x6f,0x6c,0x75,0x6d,0x65,0x69,0x69,0x3a,0x0b,0x40,0x70,0x69,0x74,0x63,0x68,0x69,0x69))
ShowMessageFace("",0,0,2,1)
ShowMessage("\\n<Luka>")
ShowMessage("Unnngh...")
ShowMessageFace("cupid_fc1",3,0,2,2)
ShowMessage("\\n<Cupid>")
ShowMessage("Ehehe... Is that it already for your resistance?")
ShowMessage("Then it's time for some real fun, right?")
ShowMessageFace("cupid_fc1",3,0,2,3)
ShowMessage("\\n<Cupid>")
ShowMessage("I'll make you into a nice toy! ♪")
PictureDisplay(5,"ev_cupid_ha1",0,0,0,0,100,100,255,0)
ShowMessageFace("",0,0,2,4)
ShowMessage("Cupid easily pushes me down, and mounts me with her small body.")
ShowMessage("Her small butt presses against my groin as she stares at me.")
ShowMessageFace("cupid_fc1",3,0,2,5)
ShowMessage("\\n<Cupid>")
ShowMessage("I'll rape you for a nice long time.")
ShowMessage("I'll devour your penis with my pussy! ♪")
ShowMessageFace("",0,0,2,6)
ShowMessage("\\n<Luka>")
ShowMessage("S-Stop...!")
ShowMessageFace("",0,0,2,7)
ShowMessage("I struggle and push at Cupid, but no strength is in my movements.")
ShowMessage("I'm left helpless, pushed down by Cupid onto the floor.")
ShowMessageFace("cupid_fc1",3,0,2,8)
ShowMessage("\\n<Cupid>")
ShowMessage("An angel's pussy is literally a piece of heaven, you knooow?")
ShowMessage("Ehehe... I'll let you enjoy plenty of it♪")
ShowMessageFace("",0,0,2,9)
ShowMessage("As she speaks, she drops her waist down.")
ShowMessage("The very tip of my penis barely pierces her vagina.")
ShowMessageFace("",0,0,2,10)
ShowMessage("\\n<Luka>")
ShowMessage("Ahhh!")
ShowMessageFace("",0,0,2,11)
ShowMessage("Just with that, my body starts to tremble in pleasure.")
ShowMessage("More than just feeling good and warm, it was as if a brand new world of pleasure was opening to me...")
ShowMessageFace("",0,0,2,12)
ShowMessage("As the pleasure radiates through my body, I feel goose bumps rising up all over.")
ShowMessageFace("cupid_fc1",3,0,2,13)
ShowMessage("\\n<Cupid>")
ShowMessage("Ehe... My pussy is nice and warm, isn't it?")
ShowMessage("Here, I'll take it all the way inside noooow! ♪")
ShowMessageFace("",0,0,2,14)
ShowMessage("\\n<Luka>")
ShowMessage("Ah, aaaah...!!")
250(bytes(0x04,0x08,0x6f,0x3a,0x0c,0x52,0x50,0x47,0x3a,0x3a,0x53,0x45,0x08,0x3a,0x0a,0x40,0x6e,0x61,0x6d,0x65,0x49,0x22,0x11,0x6d,0x6f,0x6e,0x5f,0x65,0x72,0x6f,0x5f,0x70,0x79,0x75,0x31,0x06,0x3a,0x06,0x45,0x54,0x3a,0x0b,0x40,0x70,0x69,0x74,0x63,0x68,0x69,0x69,0x3a,0x0c,0x40,0x76,0x6f,0x6c,0x75,0x6d,0x65,0x69,0x69))
ShowMessageFace("",0,0,2,15)
ShowMessage("With a single movement, she drops down, forcing me all the way into her.")
ShowMessage("Unbearable pleasure races through me, sending my consciousness itself to nothing but a white cloud of bliss.")
ShowMessageFace("",0,0,2,16)
ShowMessage("I feel small folds inside of her, rubbing against my penis with the slightest of movements.")
ShowMessage("Overcome by the pleasure, it makes me feel as if I could just lay back and do nothing but focus on the sensations.")
ShowMessageFace("cupid_fc1",3,0,2,17)
ShowMessage("\\n<Cupid>")
ShowMessage("Ahaha... It feels soooo good! ♪")
ShowMessage("You feel great too, right?")
ShowMessageFace("",0,0,2,18)
ShowMessage("\\n<Luka>")
ShowMessage("Haa... Ahh...")
ShowMessageFace("cupid_fc1",3,0,2,19)
ShowMessage("\\n<Cupid>")
ShowMessage("Ehhh? You can't even answer properly?")
ShowMessage("Ahaha, that's soooo pathetic! ♪")
245(bytes(0x04,0x08,0x6f,0x3a,0x0d,0x52,0x50,0x47,0x3a,0x3a,0x42,0x47,0x53,0x08,0x3a,0x0a,0x40,0x6e,0x61,0x6d,0x65,0x49,0x22,0x1e,0x6d,0x6f,0x6e,0x5f,0x68,0x73,0x65,0x61,0x6e,0x30,0x37,0x5f,0x69,0x6e,0x6e,0x65,0x72,0x77,0x6f,0x72,0x6b,0x73,0x5f,0x61,0x37,0x06,0x3a,0x06,0x45,0x54,0x3a,0x0c,0x40,0x76,0x6f,0x6c,0x75,0x6d,0x65,0x69,0x55,0x3a,0x0b,0x40,0x70,0x69,0x74,0x63,0x68,0x69,0x69))
ShowMessageFace("",0,0,2,20)
ShowMessage("Giggling to herself, Cupid starts to move her waist.")
ShowMessageFace("",0,0,2,21)
ShowMessage("Her almost violent movements make me gasp in pure bliss.")
ShowMessage("She seems insatiable as I take her intense riding.")
ShowMessageFace("cupid_fc1",3,0,2,22)
ShowMessage("\\n<Cupid>")
ShowMessage("Take that, and that!")
ShowMessage("Ahaha, it feels amaaaazing! ♪")
ShowMessageFace("",0,0,2,23)
ShowMessage("\\n<Luka>")
ShowMessage("Ah, aaaaaah!!")
ShowMessageFace("",0,0,2,24)
ShowMessage("I'm forced in and out of her soft hole as she bounces up and down.")
ShowMessage("My penis pierces her narrow entrance, spreading apart her lips with each bounce, before being pulled out of her again.")
ShowMessageFace("",0,0,2,25)
ShowMessage("Her folds rub and press against me each way, and in moments my penis is glistening with her wetness.")
ShowMessageFace("cupid_fc1",3,0,2,26)
ShowMessage("\\n<Cupid>")
ShowMessage("Look, your penis is getting swallowed over and over! ♪")
ShowMessage("Ahahah! More, moooore! ♪")
ShowMessageFace("",0,0,2,27)
ShowMessage("\\n<Luka>")
ShowMessage("Hyaaa!")
ShowMessage("Stop it! Don't move any more!")
ShowMessageFace("",0,0,2,28)
ShowMessage("Enraptured in ecstasy, I can only focus on the sweet sensation from her angelic vagina.")
ShowMessage("Her violent movements send sparks of bliss through me, leaving me gasping in agonized pleasure.")
ShowMessageFace("",0,0,2,29)
ShowMessage("Despite trying to reject the stimulation, my body itself embraces it, causing my penis to swell and twitch.")
ShowMessage("A sweet, dull ache rises up through my waist to the rest of my body.")
ShowMessageFace("",0,0,2,30)
ShowMessage("\\n<Luka>")
ShowMessage("Haa... I'm going to come...")
ShowMessageFace("cupid_fc1",3,0,2,31)
ShowMessage("\\n<Cupid>")
ShowMessage("Ehehe... Already leaking out I see♪")
ShowMessage("You couldn't hold out against an angel's pussy, eh? ♪")
ShowMessageFace("cupid_fc1",3,0,2,32)
ShowMessage("\\n<Cupid>")
ShowMessage("I just love men the moment they orgasm.")
ShowMessageFace("cupid_fc1",3,0,2,33)
ShowMessage("\\n<Cupid>")
ShowMessage("Their penis swells and shakes...")
ShowMessage("That warm semen explodes inside my pussy, and spreads out all over...")
ShowMessageFace("cupid_fc1",3,0,2,34)
ShowMessage("\\n<Cupid>")
ShowMessage("You're about to orgasm...♪")
ShowMessage("You're going to explode right into me! ♪")
ShowMessageFace("",0,0,2,35)
ShowMessage("Almost as if delirious, her movements suddenly increase.")
ShowMessage("Her juices overflow, mix with mine and splatter all over as she rides my penis.")
ShowMessageFace("",0,0,2,36)
ShowMessage("Forcing me in and out of her, Cupid eagerly pushes me closer to my orgasm.")
ShowMessage("Overwhelmed by her greedy lust, I'm pushed over my limit with a scream.")
ShowMessageFace("",0,0,2,37)
ShowMessage("\\n<Luka>")
ShowMessage("Haa... I can't take it any more...")
ShowMessage("I'm coming! Ahhh!")
ShowMessageFace("cupid_fc1",3,0,2,38)
ShowMessage("\\n<Cupid>")
ShowMessage("Good, let it out!")
ShowMessage("Hurry, come! ♪")
ShowMessageFace("",0,0,2,39)
ShowMessage("She presses down, taking me all the way inside.")
ShowMessage("Shaking her hips quickly side to side, Cupid delivers the finishing blow.")
ShowMessageFace("",0,0,2,40)
ShowMessage("\\n<Luka>")
ShowMessage("Ahhh....")
RunCommonEvent(104)
PictureDisplay(5,"ev_cupid_ha2",0,0,0,0,100,100,255,0)
RunCommonEvent(105)
ShowMessageFace("",0,0,2,41)
ShowMessage("An incredible feeling of release and freedom washes over me as I reach orgasm.")
ShowMessage("I lay back in ecstasy, still inside her angelic vagina.")
ShowMessageFace("",0,0,2,42)
ShowMessage("It feels as if my soul itself was given to her.")
ShowMessageFace("",0,0,2,43)
ShowMessage("\\n<Luka>")
ShowMessage("Ah... Haa...")
ShowMessageFace("cupid_fc1",3,0,2,44)
ShowMessage("\\n<Cupid>")
ShowMessage("Aha... So you already leaked out♪")
ShowMessage("There aren't too many people that finish that quick, you know...?")
ShowMessageFace("cupid_fc1",3,0,2,45)
ShowMessage("\\n<Cupid>")
ShowMessage("I'm still not satisfied yet, after all!")
ShowMessage("Come on, it's time for some more rape! ♪")
ShowMessageFace("",0,0,2,46)
ShowMessage("\\n<Luka>")
ShowMessage("Ah, aaaaaah!!")
ShowMessageFace("",0,0,2,47)
ShowMessage("As her intense movements suddenly continue, I let out a scream.")
ShowMessage("Still sensitive after my orgasm, the blinding stimulation is almost too much to take.")
ShowMessageFace("",0,0,2,48)
ShowMessage("Her sweet, wet vaginal walls rub hard against my extra sensitive penis.")
ShowMessage("After only moments, it already feels like I could melt away again inside of her.")
ShowMessageFace("",0,0,2,49)
ShowMessage("\\n<Luka>")
ShowMessage("Aiie!")
ShowMessage("Ah, aaaahhh...!!")
ShowMessageFace("",0,0,2,50)
ShowMessage("I writhe under her in the tortuous ecstasy.")
ShowMessage("This agonizing pleasure attacks me as she keeps riding my sensitive penis right after I ejaculated.")
ShowMessageFace("cupid_fc1",3,0,2,51)
ShowMessage("\\n<Cupid>")
ShowMessage("Yes, yes... That reaction is just what I wanted!")
ShowMessage("Because when your penis twitches like that, it feels so good in my pussy! ♪")
ShowMessageFace("",0,0,2,52)
ShowMessage("\\n<Luka>")
ShowMessage("S...Stop it...! Ahhh!")
ShowMessageFace("",0,0,2,53)
ShowMessage("I feebly press and push against Cupid's body, but I can't move her even an inch.")
ShowMessage("I tremble and twitch under her, stuck in this hell of pleasure.")
ShowMessageFace("",0,0,2,54)
ShowMessage("But that trembling movement only served to provide Cupid with more pleasure.")
ShowMessageFace("cupid_fc1",3,0,2,55)
ShowMessage("\\n<Cupid>")
ShowMessage("Ahaha... Raping humans is the best because of this! ♪")
ShowMessage("Come on, struggle some more! ♪")
ShowMessageFace("",0,0,2,56)
ShowMessage("Hungry for her own pleasure, Cupid aggressively forces me in and out of her.")
ShowMessage("My penis is rubbed from all sides as I cry from the pleasure forced into me.")
ShowMessageFace("",0,0,2,57)
ShowMessage("I feel my penis pulsing from the intense stimulation, giving her just the reaction she wants out of me.")
ShowMessage("My attempts to resist and endure only serve to pleasure her, making her movements get even more violent and fevered.")
ShowMessageFace("cupid_fc1",3,0,2,58)
ShowMessage("\\n<Cupid>")
ShowMessage("Come on, move more!")
ShowMessage("Stir me up with that dick of yours! ♪")
ShowMessageFace("",0,0,2,59)
ShowMessage("\\n<Luka>")
ShowMessage("Hyaaa...!")
ShowMessage("Stop moving! I'm going to come...!")
ShowMessageFace("cupid_fc1",3,0,2,60)
ShowMessage("\\n<Cupid>")
ShowMessage("Ahaha... Coming again?")
ShowMessage("You're feeling really good too! ♪")
ShowMessageFace("",0,0,2,61)
ShowMessage("\\n<Luka>")
ShowMessage("No... Ah... Ahhhhh!")
RunCommonEvent(104)
PictureDisplay(5,"ev_cupid_ha3",0,0,0,0,100,100,255,0)
RunCommonEvent(105)
ShowMessageFace("",0,0,2,62)
ShowMessage("My penis pulses as I orgasm, sending spurt after spurt of semen into her waiting vagina.")
ShowMessage("But this time, I didn't even get a chance to enjoy the pleasure of my climax.")
ShowMessageFace("",0,0,2,63)
ShowMessage("Because even as I come inside her, she doesn't stop moving at all.")
ShowMessage("Rather, she starts to get even more intense.")
245(bytes(0x04,0x08,0x6f,0x3a,0x0d,0x52,0x50,0x47,0x3a,0x3a,0x42,0x47,0x53,0x08,0x3a,0x0a,0x40,0x6e,0x61,0x6d,0x65,0x49,0x22,0x1e,0x6d,0x6f,0x6e,0x5f,0x68,0x73,0x65,0x61,0x6e,0x30,0x34,0x5f,0x69,0x6e,0x6e,0x65,0x72,0x77,0x6f,0x72,0x6b,0x73,0x5f,0x61,0x34,0x06,0x3a,0x06,0x45,0x54,0x3a,0x0c,0x40,0x76,0x6f,0x6c,0x75,0x6d,0x65,0x69,0x55,0x3a,0x0b,0x40,0x70,0x69,0x74,0x63,0x68,0x69,0x69))
ShowMessageFace("cupid_fc1",3,0,2,64)
ShowMessage("\\n<Cupid>")
ShowMessage("Ahaha, so much is spurting in! ♪")
ShowMessage("Your dick is pulsing and spitting out in me! ♪")
ShowMessageFace("cupid_fc1",3,0,2,65)
ShowMessage("\\n<Cupid>")
ShowMessage("I love this feeling...♪")
ShowMessage("Come on, give me mooore! ♪")
ShowMessageFace("",0,0,2,66)
ShowMessage("\\n<Luka>")
ShowMessage("Hyaaaa!!")
ShowMessage("Ah... Ah... Ahhh!")
ShowMessageFace("",0,0,2,67)
ShowMessage("I can't do anything but scream and gasp as my sensitive penis is forced in and out of her, even while coming.")
ShowMessage("Quickly after my last orgasm, I already feel a new feeling of release filling my head.")
RunCommonEvent(104)
PictureDisplay(5,"ev_cupid_ha4",0,0,0,0,100,100,255,0)
RunCommonEvent(105)
ShowMessageFace("",0,0,2,68)
ShowMessage("Coming again, I spit out more inside of her accepting vagina.")
ShowMessage("The nonstop stimulation only seems to serve to reduce the time between my climaxes.")
ShowMessageFace("",0,0,2,69)
ShowMessage("It's as if the biological function itself of ejaculation was broken by the heavenly pleasure, transcending human reason.")
ShowMessageFace("",0,0,2,70)
ShowMessage("Even now, I'm still spitting out semen into her warm vagina.")
ShowMessageFace("cupid_fc1",3,0,2,71)
ShowMessage("\\n<Cupid>")
ShowMessage("Ahaha... The human's tap seems to have broken!")
ShowMessage("But it feels so good when you come inside me...")
ShowMessageFace("cupid_fc1",3,0,2,72)
ShowMessage("\\n<Cupid>")
ShowMessage("Here, I'll break your penis even more! ♪")
ShowMessage("I'll move even more too, so it feels better for me!")
ShowMessageFace("",0,0,2,73)
ShowMessage("\\n<Luka>")
ShowMessage("Hyaaa!!")
ShowMessageFace("",0,0,2,74)
ShowMessage("I feel my sexual functions breaking down due to her unending lust.")
ShowMessage("Not even coming during orgasms anymore, I feel semen coming out in random spurts.")
ShowMessageFace("",0,0,2,75)
ShowMessage("Only thinking of her own lust, Cupid continues to violently rape me.")
ShowMessageFace("",0,0,2,76)
ShowMessage("She thinks of me as nothing but a living vibrator of meat.")
ShowMessage("As the receiver of her intense rape, it's all too clear...")
ShowMessageFace("cupid_fc1",3,0,2,77)
ShowMessage("\\n<Cupid>")
ShowMessage("Take that, and that! ♪")
ShowMessageFace("",0,0,2,78)
ShowMessage("\\n<Luka>")
ShowMessage("Aiie! Ahhhgg!")
RunCommonEvent(104)
PictureDisplay(5,"ev_cupid_ha6",0,0,0,0,100,100,255,0)
RunCommonEvent(105)
ShowMessageFace("",0,0,2,79)
ShowMessage("My vision flashes white, as my entire body spasms in uncontrollable ecstasy.")
ShowMessageFace("",0,0,2,80)
ShowMessage("But Cupid's violent rape doesn't show any sign of stopping.")
ShowMessageFace("cupid_fc1",3,0,2,81)
ShowMessage("\\n<Cupid>")
ShowMessage("More, more, moooore...♪")
ShowMessage("Your dick feels so gooood! ♪")
ShowMessageFace("cupid_fc1",3,0,2,82)
ShowMessage("\\n<Cupid>")
ShowMessage("Come on, explode more in me! ♪")
ShowMessage("I want more of that warm semen in me! ♪")
ShowMessageFace("",0,0,2,83)
ShowMessage("\\n<Luka>")
ShowMessage("Hya! No more, please!")
ShowMessage("Ah, Aaaaahhh!!")
RunCommonEvent(104)
RunCommonEvent(105)
ShowMessageFace("",0,0,2,84)
ShowMessage("No matter how much I ejaculate, she just gets even more violent.")
ShowMessage("I'm left helpless as the recipient to her unending lust.")
ShowMessageFace("cupid_fc1",3,0,2,85)
ShowMessage("\\n<Cupid>")
ShowMessage("I still want more...")
ShowMessage("Give me more, make me feel even better! ♪")
ShowMessageFace("",0,0,2,86)
ShowMessage("\\n<Luka>")
ShowMessage("Stop... I'll die!")
ShowMessage("Hyaaa!")
RunCommonEvent(104)
RunCommonEvent(105)
ShowMessageFace("cupid_fc1",3,0,2,87)
ShowMessage("\\n<Cupid>")
ShowMessage("More... Give me more!")
ShowMessage("Come on, you're not dead yet!")
ShowMessageFace("cupid_fc1",3,0,2,88)
ShowMessage("\\n<Cupid>")
ShowMessage("Give it to me! ♪")
ShowMessageFace("",0,0,2,89)
ShowMessage("\\n<Luka>")
ShowMessage("Ahh... Ah... Ahhh...")
RunCommonEvent(104)
PictureDisplay(5,"ev_cupid_ha7",0,0,0,0,100,100,255,0)
RunCommonEvent(105)
ShowMessageFace("",0,0,2,90)
ShowMessage("A crazy, completely lust-filled look crosses Cupid's face as even milk starts to leak from her breasts.")
ShowMessage("But I'm sure my face looks even worse than hers at this point.")
ShowMessageFace("",0,0,2,91)
ShowMessage("\\n<Luka>")
ShowMessage("Ah... Aaah...")
ShowMessageFace("",0,0,2,92)
ShowMessage("Still being violently ridden by the sex-crazed angel, I feel myself about to faint.")
ShowMessage("Even as I do, I continue spurting semen into her hot vagina.")
ShowMessageFace("",0,0,2,93)
ShowMessage("My vision goes dark as my body continues to react against my will, giving her just what she wants.")
221()
PictureClear(5)
PictureClear(6)
246(2)
ShowMessageFace("",0,0,2,94)
ShowMessage("Thus, I became Cupid's sex toy.")
ShowMessage("A toy that satisfies her sexual desire by fulfilling my own.")
ShowMessageFace("",0,0,2,95)
ShowMessage("In front of an existence beyond human understanding like an angel, human dignity was the same as dust.")
ShowMessage("So I was simply an eternal plaything...")
ShowMessageFace("",0,0,2,96)
ShowMessage("......")
221()
242(1)
Wait(120)
355("memory_interruption")
ShowMessageFace("",0,0,2,97)
ShowMessage("You hear Ilias' voice calling out to you...")
ShowMessage("Receive her evaluation?")
ShowChoices(strings("Receive Evaluation","Change Difficulty","Reincarnate"),3)
IfPlayerPicksChoice(0,"Receive Evaluation")
 241(bytes(0x04,0x08,0x6f,0x3a,0x0d,0x52,0x50,0x47,0x3a,0x3a,0x42,0x47,0x4d,0x08,0x3a,0x0a,0x40,0x6e,0x61,0x6d,0x65,0x49,0x22,0x0a,0x69,0x72,0x69,0x61,0x73,0x06,0x3a,0x06,0x45,0x54,0x3a,0x0c,0x40,0x76,0x6f,0x6c,0x75,0x6d,0x65,0x69,0x5f,0x3a,0x0b,0x40,0x70,0x69,0x74,0x63,0x68,0x69,0x6e))
 PictureDisplay(1,"bg001",0,0,0,0,100,100,255,0)
 222()
 PictureDisplay(5,"80_iriasu_st04",0,0,0,0,100,100,0,0)
 PictureMove(5,null,0,0,0,0,100,100,255,0,30,true)
 ShowMessageFace("iriasu_fc1",3,0,2,98)
 ShowMessage("\\n<Ilias>")
 ShowMessage("You gave the orgasm treatment to an angel drowning in lust...")
 ShowMessage("Would you like to be reincarnated with a vibration feature this time?")
 PictureDisplay(5,"80_iriasu_st01",0,0,0,0,100,100,255,0)
 ShowMessageFace("iriasu_fc1",0,0,2,99)
 ShowMessage("\\n<Ilias>")
 ShowMessage("Cupid attacks with Pleasure and Bow skills.")
 ShowMessage("She also uses healing and support magic, which makes her quite bothersome.")
 ShowMessageFace("iriasu_fc1",0,0,2,100)
 ShowMessage("\\n<Ilias>")
 ShowMessage("Pleasure skills are not effective against her and she's only weak to Dark elemental attacks.")
 ShowMessage("She's strong against status ailments, which makes her a valuable asset to the enemy party.")
 PictureDisplay(5,"80_iriasu_st02",0,0,0,0,100,100,255,0)
 ShowMessageFace("iriasu_fc1",1,0,2,101)
 ShowMessage("\\n<Ilias>")
 ShowMessage("Now go, oh Brave Luka.")
 ShowMessage("Dye that pink-brained lustful angel's face into one of blood red.")
 242(1)
 221()
 PictureClear(5)
 PictureClear(1)
 Wait(60)
 0()
IfPlayerPicksChoice(1,"Change Difficulty")
 ShowMessageFace("",0,0,2,102)
 ShowMessage("Please choose a difficulty level.")
 RunCommonEvent(110)
 0()
IfPlayerPicksChoice(2,"Reincarnate")
 0()
404()
RunCommonEvent(3000)
0()
