// EVENT 4461
Name "Zombies"

If(0,25,1)
 221()
 PictureClear(5)
 PictureClear(6)
 ShowMessageFace("",0,0,2,0)
 ShowMessage("......")
 242(2)
 Wait(120)
 241(bytes(0x04,0x08,0x6f,0x3a,0x0d,0x52,0x50,0x47,0x3a,0x3a,0x42,0x47,0x4d,0x08,0x3a,0x0a,0x40,0x6e,0x61,0x6d,0x65,0x49,0x22,0x0c,0x63,0x61,0x73,0x74,0x6c,0x65,0x36,0x06,0x3a,0x06,0x45,0x54,0x3a,0x0c,0x40,0x76,0x6f,0x6c,0x75,0x6d,0x65,0x69,0x69,0x3a,0x0b,0x40,0x70,0x69,0x74,0x63,0x68,0x69,0x69))
 EndEventProcessing()
 0()
EndIf()
PictureDisplay(5,"80_zonbe_st21",0,0,0,0,100,100,255,0)
ShowMessageFace("zonbe_fc3",0,0,2,1)
ShowMessage("\\n<Zombie Girl A>Semen... Unngh...")
ShowMessageFace("",0,0,2,2)
ShowMessage("\\n<Luka>......")
ShowMessageFace("",0,0,2,3)
ShowMessage("I remain silent as the group of Zombie Girls eye me.")
ShowMessage("Despite knowing what will happen if I don't move, I stay still.")
ShowMessageFace("zonbe_fc3",1,0,2,4)
ShowMessage("\\n<Zombie Girl B>Suck... Semen...")
ShowMessageFace("zonbe_fc3",2,0,2,5)
ShowMessage("\\n<Zombie Girl C>Unnngh...Squeeze...")
241(bytes(0x04,0x08,0x6f,0x3a,0x0d,0x52,0x50,0x47,0x3a,0x3a,0x42,0x47,0x4d,0x08,0x3a,0x0a,0x40,0x6e,0x61,0x6d,0x65,0x49,0x22,0x09,0x65,0x72,0x6f,0x31,0x06,0x3a,0x06,0x45,0x54,0x3a,0x0c,0x40,0x76,0x6f,0x6c,0x75,0x6d,0x65,0x69,0x69,0x3a,0x0b,0x40,0x70,0x69,0x74,0x63,0x68,0x69,0x69))
PictureDisplay(5,"ev_zonbes_h1",0,0,0,0,100,100,255,0)
ShowMessageFace("",0,0,2,6)
ShowMessage("As expected, the Zombie Girls all cling to me.")
ShowMessage("They push me down, and one mounts me.")
ShowMessageFace("zonbe_fc3",0,0,2,7)
ShowMessage("\\n<Zombie Girl A>Want... Semen... Man... Rape...")
ShowMessageFace("",0,0,2,8)
ShowMessage("\\n<Luka>Aaah... I shouldn't...")
ShowMessageFace("",0,0,2,9)
ShowMessage("Despite my reservations, my body is twinging with excitement for pleasure.")
ShowMessage("All of these Zombie Girls clinging to me want to rape me...")
245(bytes(0x04,0x08,0x6f,0x3a,0x0d,0x52,0x50,0x47,0x3a,0x3a,0x42,0x47,0x53,0x08,0x3a,0x0a,0x40,0x6e,0x61,0x6d,0x65,0x49,0x22,0x1e,0x6d,0x6f,0x6e,0x5f,0x68,0x73,0x65,0x61,0x6e,0x30,0x31,0x5f,0x69,0x6e,0x6e,0x65,0x72,0x77,0x6f,0x72,0x6b,0x73,0x5f,0x61,0x31,0x06,0x3a,0x06,0x45,0x54,0x3a,0x0c,0x40,0x76,0x6f,0x6c,0x75,0x6d,0x65,0x69,0x55,0x3a,0x0b,0x40,0x70,0x69,0x74,0x63,0x68,0x69,0x69))
PictureDisplay(5,"ev_zonbes_h2",0,0,0,0,100,100,255,0)
ShowMessageFace("",0,0,2,10)
ShowMessage("With that thought, the Zombie Girl on top of my forces me into her!")
ShowMessageFace("",0,0,2,11)
ShowMessage("\\n<Luka>Auuu...")
ShowMessageFace("",0,0,2,12)
ShowMessage("The sticky liquid flowing out from her vagina brings amazing pleasure with every movement of her waist.")
ShowMessageFace("",0,0,2,13)
ShowMessage("The pleasure brought by the warm friction from the movement in her cold vagina sends a chill down my spine.")
ShowMessageFace("",0,0,2,15)
ShowMessage("\\n<Luka>Aaaa...")
ShowMessageFace("zonbe_fc3",1,0,2,16)
ShowMessage("\\n<Zombie Girl B>Man's... Warmth...")
ShowMessageFace("zonbe_fc3",2,0,2,17)
ShowMessage("\\n<Zombie Girl C>Auuu... So cold...")
ShowMessageFace("",0,0,2,18)
ShowMessage("The other zombies lean over me at the same time.")
ShowMessageFace("",0,0,2,19)
ShowMessage("One starts to lick my chest, focusing on my nipples.")
ShowMessageFace("",0,0,2,20)
ShowMessage("The other one starts to gently bite on my neck with her toothless mouth.")
ShowMessageFace("",0,0,2,21)
ShowMessage("\\n<Luka>That feels so good...Nnnmm!")
ShowMessageFace("",0,0,2,22)
ShowMessage("As I start to scream, one of the zombies kisses me.")
ShowMessageFace("",0,0,2,23)
ShowMessage("Her thick lips cover my mouth as she forces her tongue into my mouth.")
ShowMessage("Surprisingly, she smells exactly like a human female, with no hint of decaying flesh or rotten smells.")
ShowMessageFace("",0,0,2,24)
ShowMessage("Her tongue invades my mouth and quickly moves around, as if desperately trying to taste every part of my mouth.")
ShowMessageFace("",0,0,2,25)
ShowMessage("\\n<Luka>Mmmmfff...")
ShowMessageFace("zonbe_fc3",1,0,2,26)
ShowMessage("\\n<Zombie Girl B>Mmmm... *Suck* *Smack*")
ShowMessageFace("zonbe_fc3",2,0,2,27)
ShowMessage("\\n<Zombie Girl C>Mmggg, mggg... mm, ahm, ahm, ahm...")
ShowMessageFace("",0,0,2,28)
ShowMessage("Licking my body, raping me, kissing me...")
ShowMessage("As the zombies rape me, all I can do is soak in the sensations from every direction.")
ShowMessageFace("",0,0,2,29)
ShowMessage("This hateful, sweet pleasure...")
ShowMessage("The zombies are mindlessly toying with my body.")
ShowMessageFace("zonbe_fc3",0,0,2,30)
ShowMessage("\\n<Zombie Girl A>Energy... Man's... Energy...")
ShowMessageFace("",0,0,2,31)
ShowMessage("The zombie who's pumping me as fast as she can lets out a moan.")
ShowMessageFace("",0,0,2,32)
ShowMessage("The sticky feeling of her cold pussy is quickly forcing me to another orgasm.")
ShowMessageFace("",0,0,2,33)
ShowMessage("\\n<Luka>Auuu... I'm going to come again...")
ShowMessageFace("zonbe_fc3",0,0,2,34)
ShowMessage("\\n<Zombie Girl A>Man... Semen... Warmth...")
ShowMessageFace("",0,0,2,35)
ShowMessage("As if she can sense me reaching my limit, her pace quickens.")
ShowMessageFace("",0,0,2,36)
ShowMessage("Pumping me up and down, she's desperately forcing me all the way in and out of her.")
ShowMessageFace("",0,0,2,37)
ShowMessage("\\n<Luka>Aaaaa!!")
RunCommonEvent(104)
PictureDisplay(5,"ev_zonbes_h3",0,0,0,0,100,100,255,0)
RunCommonEvent(105)
ShowMessageFace("",0,0,2,38)
ShowMessage("I explode inside of her, pouring my semen into her non-functioning womb.")
ShowMessage("My mind is paralyzed by the horror of breaking the ultimate taboo.")
246(1)
ShowMessageFace("zonbe_fc3",1,0,2,39)
ShowMessage("\\n<Zombie Girl B>Energy... Man's...")
ShowMessageFace("",0,0,2,40)
ShowMessage("Suddenly, another zombie leans over my abdomen.")
ShowMessageFace("",0,0,2,41)
ShowMessage("She pushes away the zombie that was just raping me, and forces me inside of her.")
ShowMessageFace("",0,0,2,42)
ShowMessage("\\n<Luka>Auuu... Stop...")
ShowMessageFace("",0,0,2,43)
ShowMessage("After I come, a feeling of fear comes over me.")
ShowMessage("If they all rape me without stopping... This could kill me.")
ShowMessageFace("zonbe_fc3",1,0,2,44)
ShowMessage("\\n<Zombie Girl B>Auuu... Stop...")
245(bytes(0x04,0x08,0x6f,0x3a,0x0d,0x52,0x50,0x47,0x3a,0x3a,0x42,0x47,0x53,0x08,0x3a,0x0a,0x40,0x6e,0x61,0x6d,0x65,0x49,0x22,0x1e,0x6d,0x6f,0x6e,0x5f,0x68,0x73,0x65,0x61,0x6e,0x30,0x33,0x5f,0x69,0x6e,0x6e,0x65,0x72,0x77,0x6f,0x72,0x6b,0x73,0x5f,0x61,0x33,0x06,0x3a,0x06,0x45,0x54,0x3a,0x0c,0x40,0x76,0x6f,0x6c,0x75,0x6d,0x65,0x69,0x55,0x3a,0x0b,0x40,0x70,0x69,0x74,0x63,0x68,0x69,0x69))
ShowMessageFace("",0,0,2,45)
ShowMessage("With a lewd noise, my dick is forced all the way into the new zombie's slimy pussy.")
ShowMessage("This new zombie's vagina was much tighter than the last.")
ShowMessageFace("",0,0,2,46)
ShowMessage("The new sensation causes my body to writhe as she moves her waist.")
ShowMessage("Even though I'm being raped by a zombie, I can't deny the rising pleasure.")
ShowMessageFace("",0,0,2,47)
ShowMessage("\\n<Luka>Aaaaah... That feels good...")
ShowMessageFace("zonbe_fc3",0,0,2,48)
ShowMessage("\\n<Zombie Girl A>Uuuu... Man's... Warmth...")
ShowMessageFace("",0,0,2,49)
ShowMessage("The zombie that was thrust aside shambles back over and starts to nibble on my thighs.")
ShowMessageFace("",0,0,2,50)
ShowMessage("As I look over at her, I see numerous zombies slowly shambling towards me.")
ShowMessageFace("",0,0,2,51)
ShowMessage("More zombies start to lean over and lick and gently bite the exposed areas of my body.")
ShowMessageFace("zonbe_fc3",1,0,2,52)
ShowMessage("\\n<Zombie Girl B>Aaaa...")
ShowMessageFace("",0,0,2,53)
ShowMessage("\\n<Luka>Faaa... Amazing...")
ShowMessageFace("",0,0,2,54)
ShowMessage("The zombie raping me keeps mindlessly pumping me.")
ShowMessage("Intoxicated by the orgy of zombies stimulating me all over, all I can do is moan in pleasure.")
ShowMessageFace("zonbe_fc3",1,0,2,55)
ShowMessage("\\n<Zombie Girl B>Male... Energy...")
ShowMessageFace("",0,0,2,56)
ShowMessage("The zombie raping me desperately shakes her waist.")
ShowMessageFace("",0,0,2,57)
ShowMessage("Overwhelmed by her sticky narrow pussy, I'm forced to orgasm again.")
RunCommonEvent(104)
PictureDisplay(5,"ev_zonbes_h5",0,0,0,0,100,100,255,0)
RunCommonEvent(105)
ShowMessageFace("",0,0,2,58)
ShowMessage("More of my warm semen gushes out into this new zombie's cold vagina.")
ShowMessageFace("",0,0,2,59)
ShowMessage("\\n<Luka>Hnnaaa...")
ShowMessageFace("",0,0,2,60)
ShowMessage("With no time to enjoy the lingering pleasure of my last ejaculation...")
246(1)
ShowMessageFace("",0,0,2,62)
ShowMessage("The zombie who was raping me is pushed away as another zombie takes her place.")
ShowMessage("Again, my dick is forced into a new zombie.")
ShowMessageFace("",0,0,2,63)
ShowMessage("\\n<Luka>Aaaa!!")
245(bytes(0x04,0x08,0x6f,0x3a,0x0d,0x52,0x50,0x47,0x3a,0x3a,0x42,0x47,0x53,0x08,0x3a,0x0a,0x40,0x6e,0x61,0x6d,0x65,0x49,0x22,0x1e,0x6d,0x6f,0x6e,0x5f,0x68,0x73,0x65,0x61,0x6e,0x30,0x39,0x5f,0x69,0x6e,0x6e,0x65,0x72,0x77,0x6f,0x72,0x6b,0x73,0x5f,0x62,0x31,0x06,0x3a,0x06,0x45,0x54,0x3a,0x0c,0x40,0x76,0x6f,0x6c,0x75,0x6d,0x65,0x69,0x55,0x3a,0x0b,0x40,0x70,0x69,0x74,0x63,0x68,0x69,0x69))
ShowMessageFace("",0,0,2,64)
ShowMessage("Unlike the last two zombies, this one has strange creases and folds inside.")
ShowMessage("The new stimulation causes my body to writhe pathetically as the other zombies continue to lick and nibble on me.")
ShowMessageFace("zonbe_fc3",2,0,2,65)
ShowMessage("\\n<Zombie Girl C>Warmth... Want...")
ShowMessageFace("",0,0,2,66)
ShowMessage("\\n<Luka>Faa... Amazing...")
ShowMessageFace("",0,0,2,67)
ShowMessage("Her complex feeling pussy rubs me all over as she pumps me.")
ShowMessageFace("",0,0,2,68)
ShowMessage("Her pussy must have been amazing when alive,")
ShowMessage("but after death the shape must have changed even more.")
ShowMessageFace("",0,0,2,69)
ShowMessage("Disappointingly short due to her amazing pussy, I feel another orgasm coming.")
ShowMessageFace("",0,0,2,70)
ShowMessage("\\n<Luka>Ah! Ahhhh!!")
RunCommonEvent(104)
PictureDisplay(5,"ev_zonbes_h6",0,0,0,0,100,100,255,0)
RunCommonEvent(105)
ShowMessageFace("",0,0,2,71)
ShowMessage("I explode inside of her amazing pussy.")
ShowMessage("Just like before, she's thrust aside as another zombie takes her place.")
ShowMessageFace("",0,0,2,72)
ShowMessage("I feel myself getting excited at what the new zombie will feel like...")
ShowMessageFace("zonbe_fc3",0,0,2,73)
ShowMessage("\\n<Zombie Girl A>Energy... More...")
ShowMessageFace("",0,0,2,74)
ShowMessage("\\n<Luka>Auuu... It's too good...")
RunCommonEvent(104)
PictureDisplay(5,"ev_zonbes_h7",0,0,0,0,100,100,255,0)
RunCommonEvent(105)
221()
PictureClear(5)
246(2)
ShowMessageFace("",0,0,2,75)
ShowMessage("I'm raped one after another by the zombies.")
ShowMessageFace("",0,0,2,76)
ShowMessage("I surrender myself to the immoral pleasure of their non-functioning, cold vaginas.")
ShowMessageFace("",0,0,2,77)
ShowMessage("My mind's already been broken by the twisted pleasure.")
ShowMessage("I continued having sex with them until morning...")
ShowMessageFace("",0,0,2,78)
ShowMessage(".................")
242(2)
Wait(120)
241(bytes(0x04,0x08,0x6f,0x3a,0x0d,0x52,0x50,0x47,0x3a,0x3a,0x42,0x47,0x4d,0x08,0x3a,0x0a,0x40,0x6e,0x61,0x6d,0x65,0x49,0x22,0x0c,0x63,0x61,0x73,0x74,0x6c,0x65,0x36,0x06,0x3a,0x06,0x45,0x54,0x3a,0x0c,0x40,0x76,0x6f,0x6c,0x75,0x6d,0x65,0x69,0x69,0x3a,0x0b,0x40,0x70,0x69,0x74,0x63,0x68,0x69,0x69))
0()
