// EVENT 0120
Name "Pocket Castle Maid MS Fish"

ShowMessageFace("People3",5,0,2,1)
ShowMessage("\\n<Maid>My services are at your disposal.\nYou can warp within the castle from the party edit menu.")
355("unlimited_choices(11, [\"Edit party\",")
655("\"Register/Call Party Formation\",")
655("\"Access Item Storage\", ")
655("\"Unequip non-party companions\", ")
655("\"Teleport to front gate\",")
655("\"Never mind\"])")
If(1,11,0,0,0)
 217()
 313(0,1,1,1)
 355("call_party_edit")
 0()
EndIf()
If(1,11,0,1,0)
 ShowChoices(strings("Call registered party","Register party","Do Nothing"),3)
 IfPlayerPicksChoice(0,null)
  355("SceneManager.call(Scene_PartyLoad)")
  0()
 IfPlayerPicksChoice(1,null)
  355("SceneManager.call(Scene_PartySave)")
  0()
 IfPlayerPicksChoice(2,null)
  EndEventProcessing()
  0()
 404()
 0()
EndIf()
If(1,11,0,2,0)
 RunCommonEvent(144)
 EndEventProcessing()
 0()
EndIf()
If(1,11,0,3,0)
 250(bytes(0x04,0x08,0x6f,0x3a,0x0c,0x52,0x50,0x47,0x3a,0x3a,0x53,0x45,0x08,0x3a,0x0a,0x40,0x6e,0x61,0x6d,0x65,0x49,0x22,0x09,0x53,0x61,0x6e,0x64,0x06,0x3a,0x06,0x45,0x54,0x3a,0x0b,0x40,0x70,0x69,0x74,0x63,0x68,0x69,0x69,0x3a,0x0c,0x40,0x76,0x6f,0x6c,0x75,0x6d,0x65,0x69,0x55))
 355("stand_members.each{|m|")
 655("  m.clear_equipments")
 655("}")
 0()
EndIf()
If(1,11,0,4,0)
 250(bytes(0x04,0x08,0x6f,0x3a,0x0c,0x52,0x50,0x47,0x3a,0x3a,0x53,0x45,0x08,0x3a,0x0a,0x40,0x6e,0x61,0x6d,0x65,0x49,0x22,0x09,0x4d,0x6f,0x76,0x65,0x06,0x3a,0x06,0x45,0x54,0x3a,0x0b,0x40,0x70,0x69,0x74,0x63,0x68,0x69,0x69,0x3a,0x0c,0x40,0x76,0x6f,0x6c,0x75,0x6d,0x65,0x69,0x55))
 TeleportPlayer(0,126,15,13,2,0)
 0()
EndIf()
If(1,11,0,5,0)
 EndEventProcessing()
 0()
EndIf()
0()
