// EVENT 2046
Name "Seduction: Two-tailed Silver Kitsune"

If(0,25,1)
 EndEventProcessing()
 0()
EndIf()
355("$game_troop.lose_event_id = 3046")
ChangeVariable(26,26,0,3,3,1,4)
ChangeVariable(26,26,4,0,10)
ShowMessageFace("youko_fc1",2,0,2,1)
ShowMessage("\\n<Two-tailed Silver Kitsune>Waan... I'm going to lose!")
ShowMessageFace("youko_fc1",0,0,2,2)
ShowMessage("\\n<Two-tailed Silver Kitsune>Hey, hey, I'll play with your penis with my tail.\nSo let me go... OK?")
ChangeSwitch(98,98,0)
ChangeSwitch(96,96,0)
ShowChoices(strings("Ignore her","Give in to temptation"),1)
IfPlayerPicksChoice(0,"Ignore her")
 ShowMessageFace("",0,0,2,3)
 ShowMessage("Luka resists her temptation!")
 RunCommonEvent(1999)
 EndEventProcessing()
 0()
IfPlayerPicksChoice(1,"誘惑に乗る")
 0()
404()
ShowMessageFace("youko_fc1",1,0,2,4)
ShowMessage("\\n<Two-tailed Silver Kitsune>Mufufu, you'll let me go after, right?\nThen I'll give you lots of service♪")
ChangeVariable(26,26,3,0,2)
250(bytes(0x04,0x08,0x6f,0x3a,0x0c,0x52,0x50,0x47,0x3a,0x3a,0x53,0x45,0x08,0x3a,0x0a,0x40,0x6e,0x61,0x6d,0x65,0x49,0x22,0x0e,0x6d,0x6f,0x6e,0x5f,0x75,0x6d,0x61,0x72,0x75,0x06,0x3a,0x06,0x45,0x54,0x3a,0x0b,0x40,0x70,0x69,0x74,0x63,0x68,0x69,0x69,0x3a,0x0c,0x40,0x76,0x6f,0x6c,0x75,0x6d,0x65,0x69,0x69))
PictureDisplay(6,"ev_youko_ct02",0,0,0,0,100,100,255,0)
311(0,1,1,1,26,true)
ShowMessageFace("",0,0,2,5)
ShowMessage("The Silver Kitsune's two tails wrap around Luka's penis!")
ShowMessage("His penis is coiled in their fluffy embrace!\\D")
ShowMessage("Luka takes \\V[26] damage!")
ChangeVariable(27,27,0,3,3,1,2)
If(1,27,0,0,0)
 JumpToLabel("射精1")
 0()
EndIf()
ShowMessageFace("youko_fc1",1,0,2,6)
ShowMessage("\\n<Two-tailed Silver Kitsune>It feels nice and fluffy, doesn't it?\nI'll tickle you lots.♪")
250(bytes(0x04,0x08,0x6f,0x3a,0x0c,0x52,0x50,0x47,0x3a,0x3a,0x53,0x45,0x08,0x3a,0x0a,0x40,0x6e,0x61,0x6d,0x65,0x49,0x22,0x0e,0x6d,0x6f,0x6e,0x5f,0x75,0x6d,0x61,0x72,0x75,0x06,0x3a,0x06,0x45,0x54,0x3a,0x0b,0x40,0x70,0x69,0x74,0x63,0x68,0x69,0x69,0x3a,0x0c,0x40,0x76,0x6f,0x6c,0x75,0x6d,0x65,0x69,0x69))
311(0,1,1,1,26,true)
ShowMessageFace("",0,0,2,7)
ShowMessage("Her two tails stroke Luka's penis!")
ShowMessage("The fluffy caress stimulates Luka!\\D")
ShowMessage("Luka takes \\V[26] damage!")
ChangeVariable(27,27,0,3,3,1,2)
If(1,27,0,0,0)
 JumpToLabel("射精2")
 0()
EndIf()
ShowMessageFace("youko_fc1",1,0,2,8)
ShowMessage("\\n<Two-tailed Silver Kitsune>I'll tickle the tip, too!\nTickle tickle~♪")
250(bytes(0x04,0x08,0x6f,0x3a,0x0c,0x52,0x50,0x47,0x3a,0x3a,0x53,0x45,0x08,0x3a,0x0a,0x40,0x6e,0x61,0x6d,0x65,0x49,0x22,0x0e,0x6d,0x6f,0x6e,0x5f,0x75,0x6d,0x61,0x72,0x75,0x06,0x3a,0x06,0x45,0x54,0x3a,0x0b,0x40,0x70,0x69,0x74,0x63,0x68,0x69,0x69,0x3a,0x0c,0x40,0x76,0x6f,0x6c,0x75,0x6d,0x65,0x69,0x69))
311(0,1,1,1,26,true)
ShowMessageFace("",0,0,2,9)
ShowMessage("The tip of her tails rub against Luka's glans!")
ShowMessage("Her fluffy tail tickles Luka's penis!\\D")
ShowMessage("Luka takes \\V[26] damage!")
ChangeVariable(27,27,0,3,3,1,2)
If(1,27,0,0,0)
 JumpToLabel("射精2")
 0()
EndIf()
ShowMessageFace("youko_fc1",1,0,2,10)
ShowMessage("\\n<Two-tailed Silver Kitsune>It's time to make you come.\nI'll wrap around your penis and make it tight~♪")
250(bytes(0x04,0x08,0x6f,0x3a,0x0c,0x52,0x50,0x47,0x3a,0x3a,0x53,0x45,0x08,0x3a,0x0a,0x40,0x6e,0x61,0x6d,0x65,0x49,0x22,0x0e,0x6d,0x6f,0x6e,0x5f,0x75,0x6d,0x61,0x72,0x75,0x06,0x3a,0x06,0x45,0x54,0x3a,0x0b,0x40,0x70,0x69,0x74,0x63,0x68,0x69,0x69,0x3a,0x0c,0x40,0x76,0x6f,0x6c,0x75,0x6d,0x65,0x69,0x69))
311(0,1,1,1,26,true)
ShowMessageFace("",0,0,2,11)
ShowMessage("Her two tails coil tighter around Luka's penis!")
ShowMessage("The fluffy caress covers every inch of Luka's penis!\\D")
ShowMessage("Luka takes \\V[26] damage!")
ChangeVariable(27,27,0,3,3,1,2)
If(1,27,0,0,0)
 JumpToLabel("射精2")
 0()
EndIf()
ShowMessageFace("youko_fc1",1,0,2,12)
ShowMessage("\\n<Two-tailed Silver Kitsune>Ok, it's the end!\nComeee~♪")
250(bytes(0x04,0x08,0x6f,0x3a,0x0c,0x52,0x50,0x47,0x3a,0x3a,0x53,0x45,0x08,0x3a,0x0a,0x40,0x6e,0x61,0x6d,0x65,0x49,0x22,0x0e,0x6d,0x6f,0x6e,0x5f,0x75,0x6d,0x61,0x72,0x75,0x06,0x3a,0x06,0x45,0x54,0x3a,0x0b,0x40,0x70,0x69,0x74,0x63,0x68,0x69,0x69,0x3a,0x0c,0x40,0x76,0x6f,0x6c,0x75,0x6d,0x65,0x69,0x69))
311(0,1,1,1,26,true)
ShowMessageFace("",0,0,2,13)
ShowMessage("Her two tails tickle every inch of Luka's penis!")
ShowMessage("From the glans to the base, Luka's overwhelmed by her two tails!\\D")
ShowMessage("Luka takes \\V[26] damage!")
ChangeVariable(27,27,0,3,3,1,2)
If(1,27,0,0,0)
 JumpToLabel("射精2")
 0()
EndIf()
DefineLabel("射精1")
ShowMessageFace("",0,0,2,14)
ShowMessage("\\n<Luka>Aah...! Coming...!")
RunCommonEvent(104)
PictureDisplay(6,"ev_youko_ct03",0,0,0,0,100,100,255,0)
RunCommonEvent(105)
ShowMessageFace("",0,0,2,15)
ShowMessage("The moment Luka is touched by her tail, he comes.")
ShowMessage("The fluffy feeling was just too much to take.")
ShowMessageFace("youko_fc1",1,0,2,16)
ShowMessage("\\n<Two-tailed Silver Kitsune>Aree... You already came?\nWow, you're super fast...♪")
RunCommonEvent(2000)
EndEventProcessing()
DefineLabel("射精2")
ShowMessageFace("",0,0,2,17)
ShowMessage("\\n<Luka>Oh no, I'm coming... Aaah...")
RunCommonEvent(104)
PictureDisplay(6,"ev_youko_ct03",0,0,0,0,100,100,255,0)
RunCommonEvent(105)
ShowMessageFace("",0,0,2,18)
ShowMessage("While being tickled by her fluffy tail, I came.")
ShowMessage("My semen clings to her tails.")
ShowMessageFace("youko_fc1",1,0,2,19)
ShowMessage("\\n<Two-tailed Silver Kitsune>Ahaha, your white stuff is all over my tails.\nYou felt good, didn't you? Ehehe.")
RunCommonEvent(2000)
EndEventProcessing()
0()
