﻿// EVENT 0836
Name "イベント重装防具レジェンド"

If(1,150,0,9999,2)
 RunCommonEvent(817)
 EndEventProcessing()
 0()
EndIf()
If(1,150,0,10000,1)
 RunCommonEvent(818)
 EndEventProcessing()
 0()
EndIf()
0()
