
DisplayName "Chaos Passage"



EVENT   1
 PAGE   1
  If(2,"A",1)
   ChangeSelfSwitch("A",0)
   If(0,6,0)
    ShowMessageFace("sonia_fc2",2,0,2,1)
    ShowMessage("\\n<Sonya>Hey, can we turn back now? You can't tell me this isn't clearly dangerous...")
    ShowMessageFace("ruka_fc1",0,0,2,2)
    ShowMessage("\\n<Luka>We have to figure out what's going on. You know as well as I do that we can't stop here.")
    0()
   EndIf()
   If(4,79,0)
    ShowMessageFace("nuruko_fc1",0,0,2,3)
    ShowMessage("\\n<Nuruko>Kyuu! Kyu kyu kyu!!")
    0()
   EndIf()
   If(0,4,0)
    ShowMessageFace("alice_fc5",2,0,2,4)
    ShowMessage("\\n<Alice>Well, let's keep going. I want to see what awaits us with my own eyes.")
    0()
   EndIf()
   If(0,5,0)
    ShowMessageFace("iriasu_fc4",7,0,2,5)
    ShowMessage("\\n<Ilias>Shall we proceed? We must discover what is happening, no matter what.")
    0()
   EndIf()
   0()
  EndIf()
  ChangeSwitch(100,100,1)
  250(bytes(0x04,0x08,0x6f,0x3a,0x0c,0x52,0x50,0x47,0x3a,0x3a,0x53,0x45,0x08,0x3a,0x0a,0x40,0x6e,0x61,0x6d,0x65,0x49,0x22,0x0b,0x4d,0x61,0x67,0x69,0x63,0x32,0x06,0x3a,0x06,0x45,0x54,0x3a,0x0b,0x40,0x70,0x69,0x74,0x63,0x68,0x69,0x69,0x3a,0x0c,0x40,0x76,0x6f,0x6c,0x75,0x6d,0x65,0x69,0x55))
  TeleportPlayer(0,422,16,11,0,1)
  ChangeVariable(1002,1002,0,0,18)
  0()
 PAGE   2
  // condition: variable 1032 >= 7
  ShowMessageFace("",0,0,2,1)
  ShowMessage("There's no response from the magic circle. Apparently the parallel world no longer exists.")
  0()



EVENT   2
 PAGE   1
  250(bytes(0x04,0x08,0x6f,0x3a,0x0c,0x52,0x50,0x47,0x3a,0x3a,0x53,0x45,0x08,0x3a,0x0a,0x40,0x6e,0x61,0x6d,0x65,0x49,0x22,0x09,0x4d,0x6f,0x76,0x65,0x06,0x3a,0x06,0x45,0x54,0x3a,0x0b,0x40,0x70,0x69,0x74,0x63,0x68,0x69,0x69,0x3a,0x0c,0x40,0x76,0x6f,0x6c,0x75,0x6d,0x65,0x69,0x55))
  TeleportPlayer(0,200,59,10,0,0)
  0()



EVENT   3
 PAGE   1
  250(bytes(0x04,0x08,0x6f,0x3a,0x0c,0x52,0x50,0x47,0x3a,0x3a,0x53,0x45,0x08,0x3a,0x0a,0x40,0x6e,0x61,0x6d,0x65,0x49,0x22,0x0a,0x43,0x68,0x65,0x73,0x74,0x06,0x3a,0x06,0x45,0x54,0x3a,0x0b,0x40,0x70,0x69,0x74,0x63,0x68,0x69,0x69,0x3a,0x0c,0x40,0x76,0x6f,0x6c,0x75,0x6d,0x65,0x69,0x55))
  205(0,bytes(0x04,0x08,0x6f,0x3a,0x13,0x52,0x50,0x47,0x3a,0x3a,0x4d,0x6f,0x76,0x65,0x52,0x6f,0x75,0x74,0x65,0x09,0x3a,0x0c,0x40,0x72,0x65,0x70,0x65,0x61,0x74,0x46,0x3a,0x0f,0x40,0x73,0x6b,0x69,0x70,0x70,0x61,0x62,0x6c,0x65,0x46,0x3a,0x0a,0x40,0x77,0x61,0x69,0x74,0x54,0x3a,0x0a,0x40,0x6c,0x69,0x73,0x74,0x5b,0x0b,0x6f,0x3a,0x15,0x52,0x50,0x47,0x3a,0x3a,0x4d,0x6f,0x76,0x65,0x43,0x6f,0x6d,0x6d,0x61,0x6e,0x64,0x07,0x3a,0x0a,0x40,0x63,0x6f,0x64,0x65,0x69,0x29,0x3a,0x10,0x40,0x70,0x61,0x72,0x61,0x6d,0x65,0x74,0x65,0x72,0x73,0x5b,0x00,0x6f,0x3b,0x0a,0x07,0x3b,0x0b,0x69,0x16,0x3b,0x0c,0x5b,0x00,0x6f,0x3b,0x0a,0x07,0x3b,0x0b,0x69,0x14,0x3b,0x0c,0x5b,0x06,0x69,0x08,0x6f,0x3b,0x0a,0x07,0x3b,0x0b,0x69,0x17,0x3b,0x0c,0x5b,0x00,0x6f,0x3b,0x0a,0x07,0x3b,0x0b,0x69,0x14,0x3b,0x0c,0x5b,0x06,0x69,0x08,0x6f,0x3b,0x0a,0x07,0x3b,0x0b,0x69,0x00,0x3b,0x0c,0x5b,0x00))
  ChangeSelfSwitch("A",0)
  ChangeInventory_Item(36,0,0,1)
  0()
 PAGE   2
  // condition: self-switch A is ON
  0()



EVENT   4
 PAGE   1
  250(bytes(0x04,0x08,0x6f,0x3a,0x0c,0x52,0x50,0x47,0x3a,0x3a,0x53,0x45,0x08,0x3a,0x0a,0x40,0x6e,0x61,0x6d,0x65,0x49,0x22,0x0a,0x43,0x68,0x65,0x73,0x74,0x06,0x3a,0x06,0x45,0x54,0x3a,0x0b,0x40,0x70,0x69,0x74,0x63,0x68,0x69,0x69,0x3a,0x0c,0x40,0x76,0x6f,0x6c,0x75,0x6d,0x65,0x69,0x55))
  205(0,bytes(0x04,0x08,0x6f,0x3a,0x13,0x52,0x50,0x47,0x3a,0x3a,0x4d,0x6f,0x76,0x65,0x52,0x6f,0x75,0x74,0x65,0x09,0x3a,0x0c,0x40,0x72,0x65,0x70,0x65,0x61,0x74,0x46,0x3a,0x0f,0x40,0x73,0x6b,0x69,0x70,0x70,0x61,0x62,0x6c,0x65,0x46,0x3a,0x0a,0x40,0x77,0x61,0x69,0x74,0x54,0x3a,0x0a,0x40,0x6c,0x69,0x73,0x74,0x5b,0x0b,0x6f,0x3a,0x15,0x52,0x50,0x47,0x3a,0x3a,0x4d,0x6f,0x76,0x65,0x43,0x6f,0x6d,0x6d,0x61,0x6e,0x64,0x07,0x3a,0x0a,0x40,0x63,0x6f,0x64,0x65,0x69,0x29,0x3a,0x10,0x40,0x70,0x61,0x72,0x61,0x6d,0x65,0x74,0x65,0x72,0x73,0x5b,0x00,0x6f,0x3b,0x0a,0x07,0x3b,0x0b,0x69,0x16,0x3b,0x0c,0x5b,0x00,0x6f,0x3b,0x0a,0x07,0x3b,0x0b,0x69,0x14,0x3b,0x0c,0x5b,0x06,0x69,0x08,0x6f,0x3b,0x0a,0x07,0x3b,0x0b,0x69,0x17,0x3b,0x0c,0x5b,0x00,0x6f,0x3b,0x0a,0x07,0x3b,0x0b,0x69,0x14,0x3b,0x0c,0x5b,0x06,0x69,0x08,0x6f,0x3b,0x0a,0x07,0x3b,0x0b,0x69,0x00,0x3b,0x0c,0x5b,0x00))
  ChangeSelfSwitch("A",0)
  ChangeInventory_Item(56,0,0,1)
  0()
 PAGE   2
  // condition: self-switch A is ON
  0()



EVENT   5
 PAGE   1
  ChangeSelfSwitch("A",0)
  If(0,6,0)
   ShowMessageFace("sonia_fc3",0,0,2,1)
   ShowMessage("\\n<Sonya>As usual, there's one of these. They appear to be tunnels connecting parallel worlds with ours.")
   0()
  Else()
   ShowMessageFace("ruka_fc1",0,0,2,2)
   ShowMessage("\\n<Luka>As usual, there's one of these. They seem act as tunnels that connect parallel worlds to ours.")
   0()
  EndIf()
  If(4,41,0)
   ShowMessageFace("stein_fc2",0,0,2,3)
   ShowMessage("\\n<Promestein>My best guess is that these parallel worlds are like overlapping faults, but this area itself appears to be outside of normal space entirely.")
   0()
  EndIf()
  If(0,4,0)
   ShowMessageFace("alice_fc5",0,0,2,4)
   ShowMessage("\\n<Alice>Everything about this place is a mystery... but let's proceed for now.")
   0()
  EndIf()
  If(0,5,0)
   ShowMessageFace("iriasu_fc4",2,0,2,5)
   ShowMessage("\\n<Ilias>This place is quite the enigma with how little we know. Does it act like a partition wall between worlds, perhaps?")
   ShowMessageFace("iriasu_fc4",2,0,2,6)
   ShowMessage("\\n<Ilias>...Anyway, let's proceed for now.")
   0()
  EndIf()
  ShowMessageFace("ruka_fc1",0,0,2,7)
  ShowMessage("\\n<Luka>(I feel like I've seen this place somewhere already... Not inside Tartarus; somewhere else...)")
  If(0,4,0)
   ShowMessageFace("alice_fc5",0,0,2,8)
   ShowMessage("\\n<Alice>Why are you standing there like that? C'mon, let's go.")
   0()
  EndIf()
  If(0,5,0)
   ShowMessageFace("iriasu_fc4",2,0,2,9)
   ShowMessage("\\n<Ilias>Stop spacing out. Let's go.")
   0()
  EndIf()
  ShowMessageFace("ruka_fc1",0,0,2,10)
  ShowMessage("\\n<Luka>Ah, yeah...")
  0()
 PAGE   2
  // condition: self-switch A is ON
  0()
