﻿
DisplayName "Château des Romances Layer 9"



EVENT   1
 PAGE   1
  281(0)
  250(bytes(0x04,0x08,0x6f,0x3a,0x0c,0x52,0x50,0x47,0x3a,0x3a,0x53,0x45,0x08,0x3a,0x0a,0x40,0x6e,0x61,0x6d,0x65,0x49,0x22,0x09,0x4d,0x6f,0x76,0x65,0x06,0x3a,0x06,0x45,0x54,0x3a,0x0b,0x40,0x70,0x69,0x74,0x63,0x68,0x69,0x69,0x3a,0x0c,0x40,0x76,0x6f,0x6c,0x75,0x6d,0x65,0x69,0x55))
  TeleportPlayer(0,929,102,47,0,0)
  0()



EVENT   2
 PAGE   1
  If(1,1228,0,9,2)
   ChangeVariable(1228,1228,0,0,10)
   0()
  EndIf()
  281(0)
  250(bytes(0x04,0x08,0x6f,0x3a,0x0c,0x52,0x50,0x47,0x3a,0x3a,0x53,0x45,0x08,0x3a,0x0a,0x40,0x6e,0x61,0x6d,0x65,0x49,0x22,0x09,0x4d,0x6f,0x76,0x65,0x06,0x3a,0x06,0x45,0x54,0x3a,0x0b,0x40,0x70,0x69,0x74,0x63,0x68,0x69,0x69,0x3a,0x0c,0x40,0x76,0x6f,0x6c,0x75,0x6d,0x65,0x69,0x55))
  TeleportPlayer(0,931,7,8,0,0)
  0()



EVENT   3
 PAGE   1
  If(1,1212,0,3,0)
   241(bytes(0x04,0x08,0x6f,0x3a,0x0d,0x52,0x50,0x47,0x3a,0x3a,0x42,0x47,0x4d,0x08,0x3a,0x0a,0x40,0x6e,0x61,0x6d,0x65,0x49,0x22,0x0c,0x62,0x6f,0x73,0x73,0x30,0x2d,0x32,0x06,0x3a,0x06,0x45,0x54,0x3a,0x0c,0x40,0x76,0x6f,0x6c,0x75,0x6d,0x65,0x69,0x69,0x3a,0x0b,0x40,0x70,0x69,0x74,0x63,0x68,0x69,0x69))
   PictureDisplay(5,"80_fulbeua_st01",0,0,0,0,100,100,0,0)
   PictureMove(5,null,0,0,0,0,100,100,255,0,30,true)
   ShowMessageFace("fulbeua_fc1",0,0,2,1)
   ShowMessage("\\n<Fulbeua>Fufu... I thought you might come here seeking me.")
   ShowMessageFace("magatu_fc1",2,0,2,2)
   ShowMessage("\\n<Magatsu>Fulbeua Sina Lestani...\nWe're all familiar with your full name.")
   ShowMessageFace("",0,0,2,3)
   ShowMessage("The way forward is just beyond her throne...\nBut it doesn't look like Fulbeua is going to let us pass.")
   ShowMessageFace("rejeo_fc1",0,0,2,4)
   ShowMessage("\\n<Rigeo>Fulbeua...\nYou can't leave this place, can you?")
   ShowMessageFace("fulbeua_fc1",0,0,2,5)
   ShowMessage("\\n<Fulbeua>A new incarnation of beauty reigns over this world--I absolutely must embody that.")
   ShowMessageFace("fulbeua_fc1",0,0,2,6)
   ShowMessage("\\n<Fulbeua>If you wish to pass through here, you must appeal to me. You should know how radiantly my beauty shines.")
   ShowMessageFace("lawrat_fc1",0,0,2,7)
   ShowMessage("\\n<Lauratt>............")
   ShowMessageFace("",0,0,2,8)
   ShowMessage("It looks like Fulbeua has no intention of stepping aside after all. We have no choice but to defeat her if we want to move onwards...")
   If(0,4,0)
    ShowMessageFace("alice_fc5",2,0,2,9)
    ShowMessage("\\n<Alice>She's a Nightmare...\nI'm pretty sure you know by now, but only pleasure attacks will work on her.")
    0()
   EndIf()
   If(0,5,0)
    ShowMessageFace("iriasu_fc4",7,0,2,10)
    ShowMessage("\\n<Ilias>This woman is a Nightmare...\nI'm certain you're aware, but only pleasure attacks will affect her.")
    0()
   EndIf()
   ShowMessageFace("ruka_fc1",0,0,2,11)
   ShowMessage("\\n<Luka>I think it'd be best if I just stick to supporting from the back lines.")
   ShowMessageFace("fulbeua_fc1",0,0,2,12)
   ShowMessage("\\n<Fulbeua>Fufu... Entertain me, delight me.\nDo your best to shower me with offerings of pleasure...")
   ShowMessageFace("fulbeua_fc1",0,0,2,13)
   ShowMessage("\\n<Fulbeua>And I am the embodiment of beauty who stands above all others, Fulbeua Sina Lestani...")
   ShowMessageFace("fulbeua_fc1",0,0,2,14)
   ShowMessage("\\n<Fulbeua>Just ask from the bottom of your heart...♡")
   SetBattleBGM(bytes(0x04,0x08,0x6f,0x3a,0x0d,0x52,0x50,0x47,0x3a,0x3a,0x42,0x47,0x4d,0x08,0x3a,0x0a,0x40,0x6e,0x61,0x6d,0x65,0x49,0x22,0x08,0x63,0x62,0x33,0x06,0x3a,0x06,0x45,0x54,0x3a,0x0c,0x40,0x76,0x6f,0x6c,0x75,0x6d,0x65,0x69,0x69,0x3a,0x0b,0x40,0x70,0x69,0x74,0x63,0x68,0x69,0x69))
   Battle(0,1414,false,false)
   SetBattleBGM(bytes(0x04,0x08,0x6f,0x3a,0x0d,0x52,0x50,0x47,0x3a,0x3a,0x42,0x47,0x4d,0x08,0x3a,0x0a,0x40,0x6e,0x61,0x6d,0x65,0x49,0x22,0x0b,0x62,0x61,0x74,0x74,0x6c,0x65,0x06,0x3a,0x06,0x45,0x54,0x3a,0x0c,0x40,0x76,0x6f,0x6c,0x75,0x6d,0x65,0x69,0x69,0x3a,0x0b,0x40,0x70,0x69,0x74,0x63,0x68,0x69,0x69))
   241(bytes(0x04,0x08,0x6f,0x3a,0x0d,0x52,0x50,0x47,0x3a,0x3a,0x42,0x47,0x4d,0x08,0x3a,0x0a,0x40,0x6e,0x61,0x6d,0x65,0x49,0x22,0x14,0x73,0x63,0x65,0x6e,0x65,0x5f,0x65,0x70,0x69,0x6c,0x6f,0x67,0x75,0x65,0x32,0x06,0x3a,0x06,0x45,0x54,0x3a,0x0c,0x40,0x76,0x6f,0x6c,0x75,0x6d,0x65,0x69,0x69,0x3a,0x0b,0x40,0x70,0x69,0x74,0x63,0x68,0x69,0x69))
   PictureDisplay(5,"80_fulbeua_st02",0,0,0,0,100,100,255,0)
   314(0,0)
   ShowMessageFace("fulbeua_fc1",0,0,2,15)
   ShowMessage("\\n<Fulbeua>Fufu, that felt quite pleasant.\nSuch sweet pleasure only makes my beauty more prominent...")
   ShowMessageFace("",0,0,2,16)
   ShowMessage("Even after losing, Fulbeua still appears to be in high spirits. No, perhaps she was expecting to be defeated all along...?")
   ShowMessageFace("rejeo_fc1",0,0,2,17)
   ShowMessage("\\n<Rigeo>So then, will you let us through...?")
   PictureDisplay(5,"80_fulbeua_st01",0,0,0,0,100,100,255,0)
   ShowMessageFace("fulbeua_fc1",0,0,2,18)
   ShowMessage("\\n<Fulbeua>I have no intention of moving from here, but I will permit you to pass through. Sear my beauty into your memory as you forge on ahead.")
   ShowMessageFace("magatu_fc1",2,0,2,19)
   ShowMessage("\\n<Magatsu>I've already had enough of you seared into me...")
   ShowMessageFace("fulbeua_fc1",0,0,2,20)
   ShowMessage("\\n<Fulbeua>If you've come this far, you're near the heart of this place. The Queen of Dreams--Est Morn, is waiting for you there.")
   ShowMessageFace("ruka_fc1",0,0,2,21)
   ShowMessage("\\n<Luka>The seven of us will crush Est's ambitions!\nWe will not let her rule this world!")
   ShowMessageFace("fulbeua_fc1",0,0,2,22)
   ShowMessage("\\n<Fulbeua>Ambition? Rule...?\nYou understand nothing about her.")
   ShowMessageFace("fulbeua_fc1",0,0,2,23)
   ShowMessage("\\n<Fulbeua>But I suppose there's no helping it.\nI'm the only one who truly understands Est...")
   ShowMessageFace("rovissa_fc1",0,0,2,24)
   ShowMessage("\\n<Rovissa>Hmph... I can't understand you Nightmares.")
   ShowMessageFace("kazuya_fc2",0,0,2,25)
   ShowMessage("\\n<Kazuya>Sure, Est--the Queen of Dreams' intentions are unfathomable. But regardless of those intentions, one thing is for certain.")
   ShowMessageFace("kazuya_fc2",0,0,2,26)
   ShowMessage("\\n<Kazuya>The seven of us have been gathered together by the will of history to defeat the Queen of Dreams...")
   ShowMessageFace("fulbeua_fc1",0,0,2,27)
   ShowMessage("\\n<Fulbeua>............")
   ShowMessageFace("",0,0,2,28)
   ShowMessage("After a brief silence... Fulbeua said something very strange.")
   242(1)
   221()
   PictureClear(5)
   ShowMessageFace("fulbeua_fc1",0,0,2,29)
   ShowMessage("\\n<Fulbeua>...The will of history?\nDo you really believe something like that brought you here?")
   Wait(60)
   281(1)
   TeleportPlayer(0,930,53,70,8,2)
   241(bytes(0x04,0x08,0x6f,0x3a,0x0d,0x52,0x50,0x47,0x3a,0x3a,0x42,0x47,0x4d,0x08,0x3a,0x0a,0x40,0x6e,0x61,0x6d,0x65,0x49,0x22,0x08,0x63,0x62,0x31,0x06,0x3a,0x06,0x45,0x54,0x3a,0x0c,0x40,0x76,0x6f,0x6c,0x75,0x6d,0x65,0x69,0x69,0x3a,0x0b,0x40,0x70,0x69,0x74,0x63,0x68,0x69,0x69))
   ChangeVariable(1212,1212,0,0,4)
   222()
   ShowMessageFace("byakunen_fc1",2,0,2,30)
   ShowMessage("\\n<Hakunen>Those words Fulbeua just spoke...\nWhat does she mean?")
   ShowMessageFace("magatu_fc1",2,0,2,31)
   ShowMessage("\\n<Magatsu>It sounds delusional no matter how you look at it, doesn't it...?")
   If(0,4,0)
    ShowMessageFace("alice_fc5",0,0,2,32)
    ShowMessage("\\n<Alice>I'd like to know that myself...but we don't have time to look into what she really means. For now, let's keep moving forward.")
    0()
   EndIf()
   If(0,5,0)
    ShowMessageFace("iriasu_fc4",2,0,2,33)
    ShowMessage("\\n<Ilias>I am curious about that myself, but unfortunately we don't have the time to look into it. Right now we need to move onward...")
    0()
   EndIf()
   ShowMessageFace("",0,0,2,34)
   ShowMessage("Since we've come this far, it should only be a little further until we reach the magical supply room. The decisive battle against the Queen of Dreams is close at hand...")
   ShowMessageFace("kazuya_fc1",0,0,2,35)
   ShowMessage("\\n<Kazuya>By the way, Luka...\nI'd like to give you some advice.")
   ShowMessageFace("ruka_fc1",0,0,2,36)
   ShowMessage("\\n<Luka>Eh...?")
   ShowMessageFace("",0,0,2,37)
   ShowMessage("Kazuya lowers his voice and whispers to Luka...")
   ShowMessageFace("kazuya_fc1",0,0,2,38)
   ShowMessage("\\n<Kazuya>\\C[2]...She's lying.\nDon't believe a word she says.")
   EndEventProcessing()
   0()
  EndIf()
  If(1,1212,0,4,1)
   If(1,1212,0,7,2)
    ShowMessageFace("fulbeua_fc1",0,0,2,39)
    ShowMessage("\\n<Fulbeua>If you've come this far, you're near the heart of this place. The Queen of Dreams--Est Morn, is waiting for you there.")
    EndEventProcessing()
    0()
   EndIf()
   0()
  EndIf()
  If(1,1216,0,3,0)
   241(bytes(0x04,0x08,0x6f,0x3a,0x0d,0x52,0x50,0x47,0x3a,0x3a,0x42,0x47,0x4d,0x08,0x3a,0x0a,0x40,0x6e,0x61,0x6d,0x65,0x49,0x22,0x0c,0x62,0x6f,0x73,0x73,0x30,0x2d,0x32,0x06,0x3a,0x06,0x45,0x54,0x3a,0x0c,0x40,0x76,0x6f,0x6c,0x75,0x6d,0x65,0x69,0x69,0x3a,0x0b,0x40,0x70,0x69,0x74,0x63,0x68,0x69,0x69))
   PictureDisplay(5,"80_fulbeua_st01",0,0,0,0,100,100,0,0)
   PictureMove(5,null,0,0,0,0,100,100,255,0,30,true)
   ShowMessageFace("fulbeua_fc1",0,0,2,40)
   ShowMessage("\\n<Fulbeua>I expected you might come back for me.")
   ShowMessageFace("magatu_fc1",2,0,2,41)
   ShowMessage("\\n<Magatsu>We've come to make a request of you, oh Fulbeua Sina Lestani.")
   ShowMessageFace("fulbeua_fc1",0,0,2,42)
   ShowMessage("\\n<Fulbeua>Yes, I am fine with that...\nIt would appear you're finally being honest with your feelings.")
   ShowMessageFace("magatu_fc1",2,0,2,43)
   ShowMessage("\\n<Magatsu>Good grief, don't you recognize sarcasm...?")
   ShowMessageFace("fulbeua_fc1",0,0,2,44)
   ShowMessage("\\n<Fulbeua>Nay, your true thoughts slipped from your heart.\nThey came out in the form of sarcasm.")
   ShowMessageFace("byakunen_fc1",2,0,2,45)
   ShowMessage("\\n<Hakunen>What absolute self-confidence...\nI kind of yearn for that in a way.")
   ShowMessageFace("",0,0,2,46)
   ShowMessage("Contrary to the immense power Fulbeua holds, she is relatively harmless compared to the other alliance members.")
   ShowMessageFace("",0,0,2,47)
   ShowMessage("Even so, it would be dangerous to let someone with as much power as her go unchecked. There is always the possibility she might cause some turmoil on a whim...")
   ShowMessageFace("rejeo_fc1",0,0,2,48)
   ShowMessage("\\n<Rigeo>Fulbeua... Would you come with us?")
   ShowMessageFace("fulbeua_fc1",0,0,2,49)
   ShowMessage("\\n<Fulbeua>*giggle* Is the outside world enjoyable enough to move me from my throne?")
   ShowMessageFace("fulbeua_fc1",0,0,2,50)
   ShowMessage("\\n<Fulbeua>If that's the case...\nI want you to show me that enjoyment once again.")
   ShowMessageFace("fulbeua_fc1",0,0,2,51)
   ShowMessage("\\n<Fulbeua>There's no need for you to be in a hurry like before... I'm not an obstacle to be overcome for this purpose...")
   ShowMessageFace("fulbeua_fc1",0,0,2,52)
   ShowMessage("\\n<Fulbeua>...All I want is for you to appeal to me♡")
   ShowMessageFace("lawrat_fc1",0,0,2,53)
   ShowMessage("\\n<Lauratt>............")
   ShowMessageFace("rejeo_fc1",0,0,2,54)
   ShowMessage("\\n<Rigeo>I understand... We have no choice but to do this!")
   ShowMessageFace("ruka_fc1",0,0,2,55)
   ShowMessage("\\n<Luka>There was no avoiding a fight after all... Let's go!")
   SetBattleBGM(bytes(0x04,0x08,0x6f,0x3a,0x0d,0x52,0x50,0x47,0x3a,0x3a,0x42,0x47,0x4d,0x08,0x3a,0x0a,0x40,0x6e,0x61,0x6d,0x65,0x49,0x22,0x08,0x63,0x62,0x33,0x06,0x3a,0x06,0x45,0x54,0x3a,0x0c,0x40,0x76,0x6f,0x6c,0x75,0x6d,0x65,0x69,0x69,0x3a,0x0b,0x40,0x70,0x69,0x74,0x63,0x68,0x69,0x69))
   Battle(0,1421,false,false)
   SetBattleBGM(bytes(0x04,0x08,0x6f,0x3a,0x0d,0x52,0x50,0x47,0x3a,0x3a,0x42,0x47,0x4d,0x08,0x3a,0x0a,0x40,0x6e,0x61,0x6d,0x65,0x49,0x22,0x0b,0x62,0x61,0x74,0x74,0x6c,0x65,0x06,0x3a,0x06,0x45,0x54,0x3a,0x0c,0x40,0x76,0x6f,0x6c,0x75,0x6d,0x65,0x69,0x69,0x3a,0x0b,0x40,0x70,0x69,0x74,0x63,0x68,0x69,0x69))
   ChangeVariable(1216,1216,0,0,4)
   241(bytes(0x04,0x08,0x6f,0x3a,0x0d,0x52,0x50,0x47,0x3a,0x3a,0x42,0x47,0x4d,0x08,0x3a,0x0a,0x40,0x6e,0x61,0x6d,0x65,0x49,0x22,0x14,0x73,0x63,0x65,0x6e,0x65,0x5f,0x65,0x70,0x69,0x6c,0x6f,0x67,0x75,0x65,0x32,0x06,0x3a,0x06,0x45,0x54,0x3a,0x0c,0x40,0x76,0x6f,0x6c,0x75,0x6d,0x65,0x69,0x69,0x3a,0x0b,0x40,0x70,0x69,0x74,0x63,0x68,0x69,0x69))
   314(0,0)
   ShowMessageFace("fulbeua_fc1",0,0,2,56)
   ShowMessage("\\n<Fulbeua>...Now I understand you.\nWhat do you require of me...?")
   ShowMessageFace("magatu_fc1",2,0,2,57)
   ShowMessage("\\n<Magatsu>Uhh, that's not impression I'm getting from you...\nIf you understood, why didn't you address our request sooner?")
   ShowMessageFace("fulbeua_fc1",0,0,2,58)
   ShowMessage("\\n<Fulbeua>I want you to show me your will once more.\nIf you want me to become your companion, I must request an offering.")
   ShowMessageFace("rejeo_fc1",0,0,2,59)
   ShowMessage("\\n<Rigeo>An offering?\nWhat could you possibly want from us...?")
   ShowMessageFace("fulbeua_fc1",0,0,2,60)
   ShowMessage("\\n<Fulbeua>Something more beautiful than myself...\nYou must bring that to me.")
   ShowMessageFace("fulbeua_fc1",0,0,2,61)
   ShowMessage("\\n<Fulbeua>If you can do that, I will give you the honor of joining your party. Fufufu, that is, if you are able to.")
   ShowMessageFace("magatu_fc1",3,0,2,62)
   ShowMessage("\\n<Magatsu>Since Fulbeua boasts about being the single most beautiful person in the world, there couldn't possibly be anything more beautiful than her out there...")
   ShowMessageFace("magatu_fc1",2,0,2,63)
   ShowMessage("\\n<Magatsu>...I imagine you might expect that response from us, but is it good enough?")
   ShowMessageFace("fulbeua_fc1",0,0,2,64)
   ShowMessage("\\n<Fulbeua>Fufu, you've figured it out...\nYes, this may seem to be an impossible task.")
   ShowMessageFace("fulbeua_fc1",0,0,2,65)
   ShowMessage("\\n<Fulbeua>You may muster whatever wit you can to try and overcome it... I shall acknowledge your efforts.")
   ShowMessageFace("kazuya_fc2",0,0,2,66)
   ShowMessage("\\n<Kazuya>A task that is absolutely impossible to fulfill...\nIt's just like the Kobayashi Maru scenario.")
   ShowMessageFace("ruka_fc1",0,0,2,67)
   ShowMessage("\\n<Luka>Kobayashi Maru...?")
   ShowMessageFace("kazuya_fc4",7,0,2,68)
   ShowMessage("\\n<Kazuya>It's from a science-fiction drama in my world--but never mind that.")
   ShowMessageFace("",0,0,2,69)
   ShowMessage("In any case, I get what he's saying.\nTo take on a task that is impossible to fulfill in the first place sounds utterly absurd, but...")
   ShowMessageFace("fulbeua_fc1",0,0,2,70)
   ShowMessage("\\n<Fulbeua>Fufu, I'll be waiting for your offering...\nI do wonder what you might think of presenting to me?")
   ShowMessageFace("",0,0,2,71)
   ShowMessage("We need to prepare a satisfactory offering for Fulbeua. Something that is more beautiful than her...")
   If(8,596)
    JumpToLabel("鏡")
    0()
   EndIf()
   PictureClear(5)
   If(0,4,0)
    ShowMessageFace("alice_fc5",0,0,2,72)
    ShowMessage("\\n<Alice>In any case, we'll have to put this matter aside. Maybe we'll come up with something while we chase after the other alliance members.")
    0()
   EndIf()
   If(0,5,0)
    ShowMessageFace("iriasu_fc4",2,0,2,73)
    ShowMessage("\\n<Ilias>Let's set this matter aside for now.\nPerhaps we will come up with something as we chase after the other alliance members.")
    0()
   EndIf()
   ShowMessageFace("ruka_fc1",0,0,2,74)
   ShowMessage("\\n<Luka>You're right... For now, let's solve some other problems.")
   ShowMessageFace("",0,0,2,75)
   ShowMessage("Other alliance members are still at large.\nWe'll have to put Fulbeua aside for the time being.")
   241(bytes(0x04,0x08,0x6f,0x3a,0x0d,0x52,0x50,0x47,0x3a,0x3a,0x42,0x47,0x4d,0x08,0x3a,0x0a,0x40,0x6e,0x61,0x6d,0x65,0x49,0x22,0x08,0x63,0x62,0x31,0x06,0x3a,0x06,0x45,0x54,0x3a,0x0c,0x40,0x76,0x6f,0x6c,0x75,0x6d,0x65,0x69,0x69,0x3a,0x0b,0x40,0x70,0x69,0x74,0x63,0x68,0x69,0x69))
   EndEventProcessing()
   0()
  EndIf()
  If(1,1216,0,4,0)
   If(8,596)
    241(bytes(0x04,0x08,0x6f,0x3a,0x0d,0x52,0x50,0x47,0x3a,0x3a,0x42,0x47,0x4d,0x08,0x3a,0x0a,0x40,0x6e,0x61,0x6d,0x65,0x49,0x22,0x14,0x73,0x63,0x65,0x6e,0x65,0x5f,0x65,0x70,0x69,0x6c,0x6f,0x67,0x75,0x65,0x32,0x06,0x3a,0x06,0x45,0x54,0x3a,0x0c,0x40,0x76,0x6f,0x6c,0x75,0x6d,0x65,0x69,0x69,0x3a,0x0b,0x40,0x70,0x69,0x74,0x63,0x68,0x69,0x69))
    PictureDisplay(5,"80_fulbeua_st01",0,0,0,0,100,100,0,0)
    PictureMove(5,null,0,0,0,0,100,100,255,0,30,true)
    ShowMessageFace("fulbeua_fc1",0,0,2,76)
    ShowMessage("\\n<Fulbeua>You've returned...\nHave you brought me an offering?")
    DefineLabel("鏡")
    If(0,4,0)
     ShowMessageFace("alice_fc5",2,0,2,77)
     ShowMessage("\\n<Alice>Take this, Fulbeua.")
     0()
    EndIf()
    If(0,5,0)
     ShowMessageFace("iriasu_fc4",7,0,2,78)
     ShowMessage("\\n<Ilias>We give you this, Fulbeua.")
     0()
    EndIf()
    ChangeInventory_Item(596,1,0,1)
    250(bytes(0x04,0x08,0x6f,0x3a,0x0c,0x52,0x50,0x47,0x3a,0x3a,0x53,0x45,0x08,0x3a,0x0a,0x40,0x6e,0x61,0x6d,0x65,0x49,0x22,0x0b,0x4d,0x61,0x67,0x69,0x63,0x31,0x06,0x3a,0x06,0x45,0x54,0x3a,0x0b,0x40,0x70,0x69,0x74,0x63,0x68,0x69,0x69,0x3a,0x0c,0x40,0x76,0x6f,0x6c,0x75,0x6d,0x65,0x69,0x55))
    ShowMessageFace("",0,0,2,79)
    ShowMessage("We give the Mirror of Truth to Fulbeua!\nFulbeua's beautiful figure is reflected on the mirror's surface!")
    ShowMessageFace("fulbeua_fc1",0,0,2,80)
    ShowMessage("\\n<Fulbeua>The only one who is more beautiful than me is myself... I see, so that that's what you're trying to tell me.")
    ShowMessageFace("fulbeua_fc1",0,0,2,81)
    ShowMessage("\\n<Fulbeua>You must have racked your brains coming up with this answer to my question. I shall acknowledge...your efforts.")
    ShowMessageFace("rejeo_fc1",0,0,2,82)
    ShowMessage("\\n<Rigeo>Then does that mean...you'll join our party?")
    ShowMessageFace("fulbeua_fc1",0,0,2,83)
    ShowMessage("\\n<Fulbeua>Yes... I was beginning to grow tired of this throne.\nI shall uphold my promise now that you have given me a satisfactory answer...")
    PictureClear(5)
    205(0,bytes(0x04,0x08,0x6f,0x3a,0x13,0x52,0x50,0x47,0x3a,0x3a,0x4d,0x6f,0x76,0x65,0x52,0x6f,0x75,0x74,0x65,0x09,0x3a,0x0c,0x40,0x72,0x65,0x70,0x65,0x61,0x74,0x46,0x3a,0x0f,0x40,0x73,0x6b,0x69,0x70,0x70,0x61,0x62,0x6c,0x65,0x46,0x3a,0x0a,0x40,0x77,0x61,0x69,0x74,0x54,0x3a,0x0a,0x40,0x6c,0x69,0x73,0x74,0x5b,0x0a,0x6f,0x3a,0x15,0x52,0x50,0x47,0x3a,0x3a,0x4d,0x6f,0x76,0x65,0x43,0x6f,0x6d,0x6d,0x61,0x6e,0x64,0x07,0x3a,0x0a,0x40,0x63,0x6f,0x64,0x65,0x69,0x2a,0x3a,0x10,0x40,0x70,0x61,0x72,0x61,0x6d,0x65,0x74,0x65,0x72,0x73,0x5b,0x00,0x6f,0x3b,0x0a,0x07,0x3b,0x0b,0x69,0x28,0x3b,0x0c,0x5b,0x00,0x6f,0x3b,0x0a,0x07,0x3b,0x0b,0x69,0x0f,0x3b,0x0c,0x5b,0x00,0x6f,0x3b,0x0a,0x07,0x3b,0x0b,0x69,0x2c,0x3b,0x0c,0x5b,0x00,0x6f,0x3b,0x0a,0x07,0x3b,0x0b,0x69,0x00,0x3b,0x0c,0x5b,0x00))
    355("add_actor_ex(809)")
    249(bytes(0x04,0x08,0x6f,0x3a,0x0c,0x52,0x50,0x47,0x3a,0x3a,0x4d,0x45,0x08,0x3a,0x0a,0x40,0x6e,0x61,0x6d,0x65,0x49,0x22,0x0c,0x66,0x61,0x6e,0x66,0x61,0x6c,0x65,0x06,0x3a,0x06,0x45,0x54,0x3a,0x0b,0x40,0x70,0x69,0x74,0x63,0x68,0x69,0x69,0x3a,0x0c,0x40,0x76,0x6f,0x6c,0x75,0x6d,0x65,0x69,0x69))
    ShowMessageFace("",0,0,2,84)
    ShowMessage("Fulbeua joined the party!")
    ChangeVariable(1216,1216,0,0,5)
    Wait(60)
    ShowMessageFace("magatu_fc1",2,0,2,85)
    ShowMessage("\\n<Magatsu>I don't get how you weren't bored until just now. Though I'd imagine you'd never feel bored in a place like this...")
    ShowMessageFace("fulbeua_fc1",0,0,2,86)
    ShowMessage("\\n<Fulbeua>I do not need to answer that...\nI'm sure you know how I would respond, yes?")
    ShowMessageFace("magatu_fc1",2,0,2,87)
    ShowMessage("\\n<Magatsu>Any place would shine as long as you're around, right...? Just knowing that makes me feel sad.")
    ShowMessageFace("byakunen_fc1",1,0,2,88)
    ShowMessage("\\n<Hakunen>Master...\nI see you've gotten along with Miss Fulbeua.")
    ShowMessageFace("magatu_fc1",2,0,2,89)
    ShowMessage("\\n<Magatsu>Instead of getting along with her...it's more like she's trained me. In a way that I don't appreciate.")
    ShowMessageFace("fulbeua_fc1",0,0,2,90)
    ShowMessage("\\n<Fulbeua>I must show my unwavering beauty to the whole world... Fufu, I'm going to be very busy.")
    ShowMessageFace("lawrat_fc1",0,0,2,91)
    ShowMessage("\\n<Lauratt>............")
    ShowMessageFace("fulbeua_fc1",0,0,2,92)
    ShowMessage("\\n<Fulbeua>And allow me to give you another special reward.\nI want you to accept this...")
    ShowMessageFace("lawrat_fc1",0,0,2,93)
    ShowMessage("\\n<Lauratt>......?")
    ShowMessageFace("",0,0,2,94)
    ShowMessage("Fulbeua presents a runestone to Lauratt.")
    ShowMessageFace("fulbeua_fc1",0,0,2,95)
    ShowMessage("\\n<Fulbeua>This is the Rune of Shining Rage...\nIt's not as radiant as myself, but you may have it.")
    ShowMessageFace("lawrat_fc1",0,0,2,96)
    ShowMessage("\\n<Lauratt>............")
    250(bytes(0x04,0x08,0x6f,0x3a,0x0c,0x52,0x50,0x47,0x3a,0x3a,0x53,0x45,0x08,0x3a,0x0a,0x40,0x6e,0x61,0x6d,0x65,0x49,0x22,0x0e,0x6d,0x6f,0x6e,0x5f,0x70,0x6f,0x77,0x65,0x72,0x06,0x3a,0x06,0x45,0x54,0x3a,0x0b,0x40,0x70,0x69,0x74,0x63,0x68,0x69,0x69,0x3a,0x0c,0x40,0x76,0x6f,0x6c,0x75,0x6d,0x65,0x69,0x69))
    318(0,807,0,5788)
    ShowMessageFace("",0,0,2,97)
    ShowMessage("The rune Lauratt received granted Lauratt new power!\nLauratt learned \\I[206]\\C[1]Shining Rage\\C[0]!")
    ShowMessageFace("rejeo_fc1",0,0,2,98)
    ShowMessage("\\n<Rigeo>Hey, if we used this magic...\nDo you think we could break Gilgorn's Wall of Reality?")
    If(0,4,0)
     ShowMessageFace("alice_fc5",1,0,2,99)
     ShowMessage("\\n<Alice>Yeah, it just might be possible.\nLet's go challenge Gilgorn right now!")
     0()
    EndIf()
    If(0,5,0)
     ShowMessageFace("iriasu_fc4",0,0,2,100)
     ShowMessage("\\n<Ilias>Perhaps that is a possibility.\nLet's challenge Gilgorn at once!")
     0()
    EndIf()
    ShowMessageFace("",0,0,2,101)
    ShowMessage("Without her Wall of Reality, she'll be vulnerable to pleasure skills again. In that case, we'll be able to defeat the Demon Lord Gilgorn...")
    If(1,1218,0,3,1)
     If(1,1219,0,0,0)
      ChangeVariable(1219,1219,0,0,1)
      0()
     EndIf()
     0()
    EndIf()
    241(bytes(0x04,0x08,0x6f,0x3a,0x0d,0x52,0x50,0x47,0x3a,0x3a,0x42,0x47,0x4d,0x08,0x3a,0x0a,0x40,0x6e,0x61,0x6d,0x65,0x49,0x22,0x08,0x63,0x62,0x31,0x06,0x3a,0x06,0x45,0x54,0x3a,0x0c,0x40,0x76,0x6f,0x6c,0x75,0x6d,0x65,0x69,0x69,0x3a,0x0b,0x40,0x70,0x69,0x74,0x63,0x68,0x69,0x69))
    EndEventProcessing()
    0()
   Else()
    ShowMessageFace("fulbeua_fc1",0,0,2,102)
    ShowMessage("\\n<Fulbeua>Fufu, I was expecting you.\nHave you not decided yet what to bring me?")
    PictureClear(5)
    ShowMessageFace("",0,0,2,103)
    ShowMessage("We need to prepare a satisfactory offering for Fulbeua. Something that is more beautiful than her...")
    If(0,4,0)
     ShowMessageFace("alice_fc5",0,0,2,104)
     ShowMessage("\\n<Alice>In any case, we'll have to put this matter aside. Maybe we'll come up with something while we chase after the other alliance members.")
     0()
    EndIf()
    If(0,5,0)
     ShowMessageFace("iriasu_fc4",2,0,2,105)
     ShowMessage("\\n<Ilias>Let's set this matter aside for now.\nPerhaps we will come up with something as we chase after the other alliance members.")
     0()
    EndIf()
    ShowMessageFace("ruka_fc1",0,0,2,106)
    ShowMessage("\\n<Luka>You're right... For now, let's solve some other problems.")
    ShowMessageFace("",0,0,2,107)
    ShowMessage("Other alliance members are still at large.\nWe'll have to put Fulbeua aside for the time being.")
    EndEventProcessing()
    0()
   EndIf()
   0()
  EndIf()
  0()
 PAGE   2
  // condition: variable 1216 >= 5
  0()



EVENT   4
 PAGE   1
  ShowMessageFace("fulbeua_fc1",0,0,2,1)
  ShowMessage("\\n<Fulbeua>............")
  250(bytes(0x04,0x08,0x6f,0x3a,0x0c,0x52,0x50,0x47,0x3a,0x3a,0x53,0x45,0x08,0x3a,0x0a,0x40,0x6e,0x61,0x6d,0x65,0x49,0x22,0x0b,0x4d,0x61,0x67,0x69,0x63,0x31,0x06,0x3a,0x06,0x45,0x54,0x3a,0x0b,0x40,0x70,0x69,0x74,0x63,0x68,0x69,0x69,0x3a,0x0c,0x40,0x76,0x6f,0x6c,0x75,0x6d,0x65,0x69,0x55))
  281(1)
  TeleportPlayer(0,930,53,75,8,1)
  Wait(30)
  ShowMessageFace("ruka_fc1",0,0,2,2)
  ShowMessage("\\n<Luka>As expected, she's not going to let us simply pass by...")
  EndEventProcessing()
  0()
 PAGE   2
  // condition: variable 1212 >= 4
  0()



EVENT   5
 PAGE   1
  If(6,-1,2)
   205(0,bytes(0x04,0x08,0x6f,0x3a,0x13,0x52,0x50,0x47,0x3a,0x3a,0x4d,0x6f,0x76,0x65,0x52,0x6f,0x75,0x74,0x65,0x09,0x3a,0x0c,0x40,0x72,0x65,0x70,0x65,0x61,0x74,0x46,0x3a,0x0f,0x40,0x73,0x6b,0x69,0x70,0x70,0x61,0x62,0x6c,0x65,0x46,0x3a,0x0a,0x40,0x77,0x61,0x69,0x74,0x54,0x3a,0x0a,0x40,0x6c,0x69,0x73,0x74,0x5b,0x09,0x6f,0x3a,0x15,0x52,0x50,0x47,0x3a,0x3a,0x4d,0x6f,0x76,0x65,0x43,0x6f,0x6d,0x6d,0x61,0x6e,0x64,0x07,0x3a,0x0a,0x40,0x63,0x6f,0x64,0x65,0x69,0x31,0x3a,0x10,0x40,0x70,0x61,0x72,0x61,0x6d,0x65,0x74,0x65,0x72,0x73,0x5b,0x06,0x6f,0x3a,0x0c,0x52,0x50,0x47,0x3a,0x3a,0x53,0x45,0x08,0x3a,0x0a,0x40,0x6e,0x61,0x6d,0x65,0x49,0x22,0x10,0x68,0x61,0x6e,0x64,0x2d,0x64,0x72,0x75,0x6d,0x30,0x31,0x06,0x3a,0x06,0x45,0x54,0x3a,0x0b,0x40,0x70,0x69,0x74,0x63,0x68,0x69,0x69,0x3a,0x0c,0x40,0x76,0x6f,0x6c,0x75,0x6d,0x65,0x69,0x69,0x6f,0x3b,0x0a,0x07,0x3b,0x0b,0x69,0x2e,0x3b,0x0c,0x5b,0x07,0x49,0x22,0x0b,0x73,0x61,0x6e,0x6d,0x61,0x69,0x06,0x3b,0x0f,0x54,0x69,0x06,0x6f,0x3b,0x0a,0x07,0x3b,0x0b,0x69,0x13,0x3b,0x0c,0x5b,0x07,0x69,0x00,0x69,0x00,0x6f,0x3b,0x0a,0x07,0x3b,0x0b,0x69,0x00,0x3b,0x0c,0x5b,0x00))
   205(0,bytes(0x04,0x08,0x6f,0x3a,0x13,0x52,0x50,0x47,0x3a,0x3a,0x4d,0x6f,0x76,0x65,0x52,0x6f,0x75,0x74,0x65,0x09,0x3a,0x0c,0x40,0x72,0x65,0x70,0x65,0x61,0x74,0x46,0x3a,0x0f,0x40,0x73,0x6b,0x69,0x70,0x70,0x61,0x62,0x6c,0x65,0x46,0x3a,0x0a,0x40,0x77,0x61,0x69,0x74,0x46,0x3a,0x0a,0x40,0x6c,0x69,0x73,0x74,0x5b,0x0d,0x6f,0x3a,0x15,0x52,0x50,0x47,0x3a,0x3a,0x4d,0x6f,0x76,0x65,0x43,0x6f,0x6d,0x6d,0x61,0x6e,0x64,0x07,0x3a,0x0a,0x40,0x63,0x6f,0x64,0x65,0x69,0x31,0x3a,0x10,0x40,0x70,0x61,0x72,0x61,0x6d,0x65,0x74,0x65,0x72,0x73,0x5b,0x06,0x6f,0x3a,0x0c,0x52,0x50,0x47,0x3a,0x3a,0x53,0x45,0x08,0x3a,0x0a,0x40,0x6e,0x61,0x6d,0x65,0x49,0x22,0x09,0x53,0x61,0x6e,0x64,0x06,0x3a,0x06,0x45,0x54,0x3a,0x0b,0x40,0x70,0x69,0x74,0x63,0x68,0x69,0x01,0x96,0x3a,0x0c,0x40,0x76,0x6f,0x6c,0x75,0x6d,0x65,0x69,0x55,0x6f,0x3b,0x0a,0x07,0x3b,0x0b,0x69,0x29,0x3b,0x0c,0x5b,0x00,0x6f,0x3b,0x0a,0x07,0x3b,0x0b,0x69,0x2e,0x3b,0x0c,0x5b,0x07,0x49,0x22,0x0b,0x21,0x46,0x6c,0x61,0x6d,0x65,0x06,0x3b,0x0f,0x54,0x69,0x0c,0x6f,0x3b,0x0a,0x07,0x3b,0x0b,0x69,0x17,0x3b,0x0c,0x5b,0x00,0x6f,0x3b,0x0a,0x07,0x3b,0x0b,0x69,0x22,0x3b,0x0c,0x5b,0x06,0x69,0x0a,0x6f,0x3b,0x0a,0x07,0x3b,0x0b,0x69,0x26,0x3b,0x0c,0x5b,0x00,0x6f,0x3b,0x0a,0x07,0x3b,0x0b,0x69,0x14,0x3b,0x0c,0x5b,0x06,0x69,0x23,0x6f,0x3b,0x0a,0x07,0x3b,0x0b,0x69,0x00,0x3b,0x0c,0x5b,0x00))
   ShowMessageFace("youkosan_fc1",3,0,2,1)
   ShowMessage("\\n<Spirit Fox>Mugyaaa!!\\^\\.\\.")
   ChangeSelfSwitch("A",0)
   EndEventProcessing()
   0()
  Else()
   ShowMessageFace("youkosan_fc2",0,0,2,2)
   ShowMessage("\\n<Fox Statue>Fufufu... I am a Fox Statue.\nI won't step aside unless you talk to my \"arse\".")
   EndEventProcessing()
   0()
  EndIf()
  0()
 PAGE   2
  // condition: self-switch A is ON
  0()



EVENT   7
 PAGE   1
  250(bytes(0x04,0x08,0x6f,0x3a,0x0c,0x52,0x50,0x47,0x3a,0x3a,0x53,0x45,0x08,0x3a,0x0a,0x40,0x6e,0x61,0x6d,0x65,0x49,0x22,0x0a,0x43,0x68,0x65,0x73,0x74,0x06,0x3a,0x06,0x45,0x54,0x3a,0x0b,0x40,0x70,0x69,0x74,0x63,0x68,0x69,0x69,0x3a,0x0c,0x40,0x76,0x6f,0x6c,0x75,0x6d,0x65,0x69,0x55))
  205(0,bytes(0x04,0x08,0x6f,0x3a,0x13,0x52,0x50,0x47,0x3a,0x3a,0x4d,0x6f,0x76,0x65,0x52,0x6f,0x75,0x74,0x65,0x09,0x3a,0x0c,0x40,0x72,0x65,0x70,0x65,0x61,0x74,0x46,0x3a,0x0f,0x40,0x73,0x6b,0x69,0x70,0x70,0x61,0x62,0x6c,0x65,0x46,0x3a,0x0a,0x40,0x77,0x61,0x69,0x74,0x54,0x3a,0x0a,0x40,0x6c,0x69,0x73,0x74,0x5b,0x0b,0x6f,0x3a,0x15,0x52,0x50,0x47,0x3a,0x3a,0x4d,0x6f,0x76,0x65,0x43,0x6f,0x6d,0x6d,0x61,0x6e,0x64,0x07,0x3a,0x0a,0x40,0x63,0x6f,0x64,0x65,0x69,0x29,0x3a,0x10,0x40,0x70,0x61,0x72,0x61,0x6d,0x65,0x74,0x65,0x72,0x73,0x5b,0x00,0x6f,0x3b,0x0a,0x07,0x3b,0x0b,0x69,0x16,0x3b,0x0c,0x5b,0x00,0x6f,0x3b,0x0a,0x07,0x3b,0x0b,0x69,0x14,0x3b,0x0c,0x5b,0x06,0x69,0x08,0x6f,0x3b,0x0a,0x07,0x3b,0x0b,0x69,0x17,0x3b,0x0c,0x5b,0x00,0x6f,0x3b,0x0a,0x07,0x3b,0x0b,0x69,0x14,0x3b,0x0c,0x5b,0x06,0x69,0x08,0x6f,0x3b,0x0a,0x07,0x3b,0x0b,0x69,0x00,0x3b,0x0c,0x5b,0x00))
  ChangeSwitch(2954,2954,0)
  ChangeInventoryArmor(351,0,0,1,false)
  ShowMessageFace("lanpass_fc2",3,0,2,1)
  ShowMessage("\\n<Lampas>Hey, this is Echo's mucus cream!\nGive it to me so that I won't catch on fire anymore♪")
  0()
 PAGE   2
  // condition: switch 2954 is ON
  0()



EVENT   8
 PAGE   1
  250(bytes(0x04,0x08,0x6f,0x3a,0x0c,0x52,0x50,0x47,0x3a,0x3a,0x53,0x45,0x08,0x3a,0x0a,0x40,0x6e,0x61,0x6d,0x65,0x49,0x22,0x0a,0x43,0x68,0x65,0x73,0x74,0x06,0x3a,0x06,0x45,0x54,0x3a,0x0b,0x40,0x70,0x69,0x74,0x63,0x68,0x69,0x69,0x3a,0x0c,0x40,0x76,0x6f,0x6c,0x75,0x6d,0x65,0x69,0x55))
  205(0,bytes(0x04,0x08,0x6f,0x3a,0x13,0x52,0x50,0x47,0x3a,0x3a,0x4d,0x6f,0x76,0x65,0x52,0x6f,0x75,0x74,0x65,0x09,0x3a,0x0c,0x40,0x72,0x65,0x70,0x65,0x61,0x74,0x46,0x3a,0x0f,0x40,0x73,0x6b,0x69,0x70,0x70,0x61,0x62,0x6c,0x65,0x46,0x3a,0x0a,0x40,0x77,0x61,0x69,0x74,0x54,0x3a,0x0a,0x40,0x6c,0x69,0x73,0x74,0x5b,0x0b,0x6f,0x3a,0x15,0x52,0x50,0x47,0x3a,0x3a,0x4d,0x6f,0x76,0x65,0x43,0x6f,0x6d,0x6d,0x61,0x6e,0x64,0x07,0x3a,0x0a,0x40,0x63,0x6f,0x64,0x65,0x69,0x29,0x3a,0x10,0x40,0x70,0x61,0x72,0x61,0x6d,0x65,0x74,0x65,0x72,0x73,0x5b,0x00,0x6f,0x3b,0x0a,0x07,0x3b,0x0b,0x69,0x16,0x3b,0x0c,0x5b,0x00,0x6f,0x3b,0x0a,0x07,0x3b,0x0b,0x69,0x14,0x3b,0x0c,0x5b,0x06,0x69,0x08,0x6f,0x3b,0x0a,0x07,0x3b,0x0b,0x69,0x17,0x3b,0x0c,0x5b,0x00,0x6f,0x3b,0x0a,0x07,0x3b,0x0b,0x69,0x14,0x3b,0x0c,0x5b,0x06,0x69,0x08,0x6f,0x3b,0x0a,0x07,0x3b,0x0b,0x69,0x00,0x3b,0x0c,0x5b,0x00))
  ChangeSwitch(2953,2953,0)
  ChangeInventoryArmor(355,0,0,1,false)
  ShowMessageFace("byakunen_fc1",0,0,2,1)
  ShowMessage("\\n<Hakunen>These geta fit perfectly on my feet.\nIt also feels like I can run a little faster now too...")
  0()
 PAGE   2
  // condition: switch 2953 is ON
  0()



EVENT   6
 PAGE   1
  250(bytes(0x04,0x08,0x6f,0x3a,0x0c,0x52,0x50,0x47,0x3a,0x3a,0x53,0x45,0x08,0x3a,0x0a,0x40,0x6e,0x61,0x6d,0x65,0x49,0x22,0x0a,0x43,0x68,0x65,0x73,0x74,0x06,0x3a,0x06,0x45,0x54,0x3a,0x0b,0x40,0x70,0x69,0x74,0x63,0x68,0x69,0x69,0x3a,0x0c,0x40,0x76,0x6f,0x6c,0x75,0x6d,0x65,0x69,0x55))
  205(0,bytes(0x04,0x08,0x6f,0x3a,0x13,0x52,0x50,0x47,0x3a,0x3a,0x4d,0x6f,0x76,0x65,0x52,0x6f,0x75,0x74,0x65,0x09,0x3a,0x0c,0x40,0x72,0x65,0x70,0x65,0x61,0x74,0x46,0x3a,0x0f,0x40,0x73,0x6b,0x69,0x70,0x70,0x61,0x62,0x6c,0x65,0x46,0x3a,0x0a,0x40,0x77,0x61,0x69,0x74,0x54,0x3a,0x0a,0x40,0x6c,0x69,0x73,0x74,0x5b,0x0b,0x6f,0x3a,0x15,0x52,0x50,0x47,0x3a,0x3a,0x4d,0x6f,0x76,0x65,0x43,0x6f,0x6d,0x6d,0x61,0x6e,0x64,0x07,0x3a,0x0a,0x40,0x63,0x6f,0x64,0x65,0x69,0x29,0x3a,0x10,0x40,0x70,0x61,0x72,0x61,0x6d,0x65,0x74,0x65,0x72,0x73,0x5b,0x00,0x6f,0x3b,0x0a,0x07,0x3b,0x0b,0x69,0x16,0x3b,0x0c,0x5b,0x00,0x6f,0x3b,0x0a,0x07,0x3b,0x0b,0x69,0x14,0x3b,0x0c,0x5b,0x06,0x69,0x08,0x6f,0x3b,0x0a,0x07,0x3b,0x0b,0x69,0x17,0x3b,0x0c,0x5b,0x00,0x6f,0x3b,0x0a,0x07,0x3b,0x0b,0x69,0x14,0x3b,0x0c,0x5b,0x06,0x69,0x08,0x6f,0x3b,0x0a,0x07,0x3b,0x0b,0x69,0x00,0x3b,0x0c,0x5b,0x00))
  ChangeSwitch(2952,2952,0)
  ChangeInventoryWeapon(958,0,0,1,false)
  ShowMessageFace("rest_fc1",0,0,2,1)
  ShowMessage("\\n<Lest>This sword...it couldn't be!\nWhy is this sword here...?!")
  If(0,4,0)
   ShowMessageFace("alice_fc5",0,0,2,2)
   ShowMessage("\\n<Alice>That weapon appears to have a strong connection to you. We'll let you have it then.")
   0()
  EndIf()
  If(0,5,0)
   ShowMessageFace("iriasu_fc4",0,0,2,3)
   ShowMessage("\\n<Ilias>That weapon appears to have a strong connection to you. Wield that sword to deliver any foes who stands in our way to oblivion.")
   0()
  EndIf()
  0()
 PAGE   2
  // condition: switch 2952 is ON
  0()



EVENT   9
 PAGE   1
  RunCommonEvent(499)
  0()



EVENT   10
 PAGE   1
  0()



EVENT   11
 PAGE   1
  0()



EVENT   12
 PAGE   1
  0()



EVENT   13
 PAGE   1
  0()



EVENT   14
 PAGE   1
  // condition: variable 1216 >= 2
  ChangeVariable(1229,1229,0,0,3)
  If(0,2952,0)
   ChangeVariable(1229,1229,2,0,1)
   0()
  EndIf()
  If(0,2953,0)
   ChangeVariable(1229,1229,2,0,1)
   0()
  EndIf()
  If(0,2954,0)
   ChangeVariable(1229,1229,2,0,1)
   0()
  EndIf()
  If(1,1229,0,0,0)
   ShowMessageFace("youkosan_fc1",0,0,2,1)
   ShowMessage("\\n<Spirit Fox>Seems you've found all the treasure chests on this floor. Congratulations♪")
   0()
  EndIf()
  If(1,1229,0,1,0)
   ShowMessageFace("youkosan_fc1",0,0,2,2)
   ShowMessage("\\n<Spirit Fox>There is still \\V[1229] treasure chest on this floor.\nKeep searching for it!!")
   0()
  EndIf()
  If(1,1229,0,2,1)
   ShowMessageFace("youkosan_fc1",0,0,2,3)
   ShowMessage("\\n<Spirit Fox>There are still \\V[1229] treasure chests on this floor.\nKeep searching for them!!")
   0()
  EndIf()
  If(1,1216,0,4,2)
   ShowMessageFace("youkosan_fc1",0,0,2,4)
   ShowMessage("\\n<Spirit Fox>There's also a very beautiful Nightmare on this floor. It's like she's the incarnation of beauty...")
   0()
  EndIf()
  0()



EVENT   15
 PAGE   1
  0()
